<?xml version="1.0" encoding="utf-8"?>
<!DOCTYPE eagle SYSTEM "eagle.dtd">
<eagle version="8.1.0">
<drawing>
<settings>
<setting alwaysvectorfont="no"/>
<setting verticaltext="up"/>
</settings>
<grid distance="0.05" unitdist="inch" unit="inch" style="lines" multiple="1" display="no" altdistance="0.025" altunitdist="inch" altunit="inch"/>
<layers>
<layer number="1" name="Top" color="4" fill="1" visible="yes" active="yes"/>
<layer number="2" name="Route2" color="1" fill="3" visible="no" active="no"/>
<layer number="3" name="Route3" color="4" fill="3" visible="no" active="no"/>
<layer number="4" name="Route4" color="1" fill="4" visible="no" active="no"/>
<layer number="5" name="Route5" color="4" fill="4" visible="no" active="no"/>
<layer number="6" name="Route6" color="1" fill="8" visible="no" active="no"/>
<layer number="7" name="Route7" color="4" fill="8" visible="no" active="no"/>
<layer number="8" name="Route8" color="1" fill="2" visible="no" active="no"/>
<layer number="9" name="Route9" color="4" fill="2" visible="no" active="no"/>
<layer number="10" name="Route10" color="1" fill="7" visible="no" active="no"/>
<layer number="11" name="Route11" color="4" fill="7" visible="no" active="no"/>
<layer number="12" name="Route12" color="1" fill="5" visible="no" active="no"/>
<layer number="13" name="Route13" color="4" fill="5" visible="no" active="no"/>
<layer number="14" name="Route14" color="1" fill="6" visible="no" active="no"/>
<layer number="15" name="Route15" color="4" fill="6" visible="no" active="no"/>
<layer number="16" name="Bottom" color="1" fill="1" visible="yes" active="yes"/>
<layer number="17" name="Pads" color="2" fill="1" visible="yes" active="yes"/>
<layer number="18" name="Vias" color="2" fill="1" visible="yes" active="yes"/>
<layer number="19" name="Unrouted" color="6" fill="1" visible="yes" active="yes"/>
<layer number="20" name="Dimension" color="15" fill="1" visible="yes" active="yes"/>
<layer number="21" name="tPlace" color="7" fill="1" visible="yes" active="yes"/>
<layer number="22" name="bPlace" color="7" fill="1" visible="yes" active="yes"/>
<layer number="23" name="tOrigins" color="15" fill="1" visible="yes" active="yes"/>
<layer number="24" name="bOrigins" color="15" fill="1" visible="yes" active="yes"/>
<layer number="25" name="tNames" color="7" fill="1" visible="yes" active="yes"/>
<layer number="26" name="bNames" color="7" fill="1" visible="yes" active="yes"/>
<layer number="27" name="tValues" color="7" fill="1" visible="yes" active="yes"/>
<layer number="28" name="bValues" color="7" fill="1" visible="yes" active="yes"/>
<layer number="29" name="tStop" color="7" fill="3" visible="no" active="yes"/>
<layer number="30" name="bStop" color="7" fill="6" visible="no" active="yes"/>
<layer number="31" name="tCream" color="7" fill="4" visible="no" active="yes"/>
<layer number="32" name="bCream" color="7" fill="5" visible="no" active="yes"/>
<layer number="33" name="tFinish" color="6" fill="3" visible="no" active="yes"/>
<layer number="34" name="bFinish" color="6" fill="6" visible="no" active="yes"/>
<layer number="35" name="tGlue" color="7" fill="4" visible="no" active="yes"/>
<layer number="36" name="bGlue" color="7" fill="5" visible="no" active="yes"/>
<layer number="37" name="tTest" color="7" fill="1" visible="no" active="yes"/>
<layer number="38" name="bTest" color="7" fill="1" visible="no" active="yes"/>
<layer number="39" name="tKeepout" color="4" fill="11" visible="yes" active="yes"/>
<layer number="40" name="bKeepout" color="1" fill="11" visible="yes" active="yes"/>
<layer number="41" name="tRestrict" color="4" fill="10" visible="yes" active="yes"/>
<layer number="42" name="bRestrict" color="1" fill="10" visible="yes" active="yes"/>
<layer number="43" name="vRestrict" color="2" fill="10" visible="yes" active="yes"/>
<layer number="44" name="Drills" color="7" fill="1" visible="no" active="yes"/>
<layer number="45" name="Holes" color="7" fill="1" visible="no" active="yes"/>
<layer number="46" name="Milling" color="3" fill="1" visible="no" active="yes"/>
<layer number="47" name="Measures" color="7" fill="1" visible="no" active="yes"/>
<layer number="48" name="Document" color="7" fill="1" visible="yes" active="yes"/>
<layer number="49" name="Reference" color="7" fill="1" visible="yes" active="yes"/>
<layer number="50" name="dxf" color="7" fill="1" visible="no" active="no"/>
<layer number="51" name="tDocu" color="7" fill="1" visible="yes" active="yes"/>
<layer number="52" name="bDocu" color="7" fill="1" visible="yes" active="yes"/>
<layer number="53" name="tGND_GNDA" color="7" fill="9" visible="no" active="no"/>
<layer number="54" name="bGND_GNDA" color="1" fill="9" visible="no" active="no"/>
<layer number="56" name="wert" color="7" fill="1" visible="no" active="no"/>
<layer number="90" name="Modules" color="5" fill="1" visible="no" active="no"/>
<layer number="91" name="Nets" color="2" fill="1" visible="no" active="no"/>
<layer number="92" name="Busses" color="1" fill="1" visible="no" active="no"/>
<layer number="93" name="Pins" color="2" fill="1" visible="no" active="no"/>
<layer number="94" name="Symbols" color="4" fill="1" visible="no" active="no"/>
<layer number="95" name="Names" color="7" fill="1" visible="no" active="no"/>
<layer number="96" name="Values" color="7" fill="1" visible="no" active="no"/>
<layer number="97" name="Info" color="7" fill="1" visible="no" active="no"/>
<layer number="98" name="Guide" color="6" fill="1" visible="no" active="no"/>
<layer number="100" name="Muster" color="7" fill="1" visible="no" active="no"/>
<layer number="101" name="Gehäuse" color="7" fill="1" visible="no" active="yes"/>
<layer number="102" name="Mittellin" color="7" fill="1" visible="no" active="yes"/>
<layer number="103" name="Stiffner" color="6" fill="3" visible="no" active="yes"/>
<layer number="104" name="Name" color="7" fill="1" visible="no" active="yes"/>
<layer number="105" name="Beschreib" color="9" fill="1" visible="no" active="no"/>
<layer number="106" name="BGA-Top" color="4" fill="1" visible="no" active="no"/>
<layer number="107" name="BD-Top" color="5" fill="1" visible="no" active="no"/>
<layer number="108" name="ExportErrors" color="56" fill="9" visible="yes" active="yes"/>
<layer number="109" name="Label1" color="13" fill="1" visible="yes" active="yes"/>
<layer number="110" name="Label2" color="59" fill="1" visible="yes" active="yes"/>
<layer number="116" name="Patch_BOT" color="9" fill="4" visible="no" active="yes"/>
<layer number="121" name="_tsilk" color="7" fill="1" visible="yes" active="yes"/>
<layer number="122" name="_bsilk" color="7" fill="1" visible="yes" active="yes"/>
<layer number="151" name="HeatSink" color="7" fill="1" visible="no" active="yes"/>
<layer number="200" name="200bmp" color="1" fill="10" visible="no" active="yes"/>
<layer number="201" name="201bmp" color="2" fill="1" visible="no" active="no"/>
<layer number="202" name="202bmp" color="3" fill="1" visible="no" active="no"/>
<layer number="250" name="Descript" color="3" fill="1" visible="no" active="no"/>
<layer number="251" name="SMDround" color="12" fill="11" visible="no" active="no"/>
<layer number="254" name="cooling" color="7" fill="1" visible="no" active="yes"/>
</layers>
<board>
<plain>
<wire x1="0" y1="0" x2="160" y2="0" width="0" layer="20"/>
<wire x1="160" y1="0" x2="160" y2="100" width="0" layer="20"/>
<wire x1="160" y1="100" x2="0" y2="100" width="0" layer="20"/>
<wire x1="0" y1="100" x2="0" y2="0" width="0" layer="20"/>
</plain>
<libraries>
<library name="rcl">
<description>&lt;b&gt;Resistors, Capacitors, Inductors&lt;/b&gt;&lt;p&gt;
Based on the previous libraries:
&lt;ul&gt;
&lt;li&gt;r.lbr
&lt;li&gt;cap.lbr 
&lt;li&gt;cap-fe.lbr
&lt;li&gt;captant.lbr
&lt;li&gt;polcap.lbr
&lt;li&gt;ipc-smd.lbr
&lt;/ul&gt;
All SMD packages are defined according to the IPC specifications and  CECC&lt;p&gt;
&lt;author&gt;Created by librarian@cadsoft.de&lt;/author&gt;&lt;p&gt;
&lt;p&gt;
for Electrolyt Capacitors see also :&lt;p&gt;
www.bccomponents.com &lt;p&gt;
www.panasonic.com&lt;p&gt;
www.kemet.com&lt;p&gt;
http://www.secc.co.jp/pdf/os_e/2004/e_os_all.pdf &lt;b&gt;(SANYO)&lt;/b&gt;
&lt;p&gt;
for trimmer refence see : &lt;u&gt;www.electrospec-inc.com/cross_references/trimpotcrossref.asp&lt;/u&gt;&lt;p&gt;

&lt;table border=0 cellspacing=0 cellpadding=0 width="100%" cellpaddding=0&gt;
&lt;tr valign="top"&gt;

&lt;! &lt;td width="10"&gt;&amp;nbsp;&lt;/td&gt;
&lt;td width="90%"&gt;

&lt;b&gt;&lt;font color="#0000FF" size="4"&gt;TRIM-POT CROSS REFERENCE&lt;/font&gt;&lt;/b&gt;
&lt;P&gt;
&lt;TABLE BORDER=0 CELLSPACING=1 CELLPADDING=2&gt;
  &lt;TR&gt;
    &lt;TD COLSPAN=8&gt;
      &lt;FONT SIZE=3 FACE=ARIAL&gt;&lt;B&gt;RECTANGULAR MULTI-TURN&lt;/B&gt;&lt;/FONT&gt;
    &lt;/TD&gt;
  &lt;/TR&gt;
  &lt;TR&gt;
    &lt;TD ALIGN=CENTER&gt;
      &lt;B&gt;
      &lt;FONT SIZE=3 FACE=ARIAL color="#FF0000"&gt;BOURNS&lt;/FONT&gt;
      &lt;/B&gt;
    &lt;/TD&gt;
    &lt;TD ALIGN=CENTER&gt;
      &lt;B&gt;
      &lt;FONT SIZE=3 FACE=ARIAL color="#FF0000"&gt;BI&amp;nbsp;TECH&lt;/FONT&gt;
      &lt;/B&gt;
    &lt;/TD&gt;
    &lt;TD ALIGN=CENTER&gt;
      &lt;B&gt;
      &lt;FONT SIZE=3 FACE=ARIAL color="#FF0000"&gt;DALE-VISHAY&lt;/FONT&gt;
      &lt;/B&gt;
    &lt;/TD&gt;
    &lt;TD ALIGN=CENTER&gt;
      &lt;B&gt;
      &lt;FONT SIZE=3 FACE=ARIAL color="#FF0000"&gt;PHILIPS/MEPCO&lt;/FONT&gt;
      &lt;/B&gt;
    &lt;/TD&gt;
    &lt;TD ALIGN=CENTER&gt;
      &lt;B&gt;
      &lt;FONT SIZE=3 FACE=ARIAL color="#FF0000"&gt;MURATA&lt;/FONT&gt;
      &lt;/B&gt;
    &lt;/TD&gt;
    &lt;TD ALIGN=CENTER&gt;
      &lt;B&gt;
      &lt;FONT SIZE=3 FACE=ARIAL color="#FF0000"&gt;PANASONIC&lt;/FONT&gt;
      &lt;/B&gt;
    &lt;/TD&gt;
    &lt;TD ALIGN=CENTER&gt;
      &lt;B&gt;
      &lt;FONT SIZE=3 FACE=ARIAL color="#FF0000"&gt;SPECTROL&lt;/FONT&gt;
      &lt;/B&gt;
    &lt;/TD&gt;
    &lt;TD ALIGN=CENTER&gt;
      &lt;B&gt;
      &lt;FONT SIZE=3 FACE=ARIAL color="#FF0000"&gt;MILSPEC&lt;/FONT&gt;
      &lt;/B&gt;
    &lt;/TD&gt;&lt;TD&gt;&amp;nbsp;&lt;/TD&gt;
  &lt;/TR&gt;
  &lt;TR&gt;
    &lt;TD BGCOLOR="#cccccc" ALIGN=CENTER&gt;&lt;FONT FACE=ARIAL SIZE=3 &gt;
      3005P&lt;BR&gt;
      3006P&lt;BR&gt;
      3006W&lt;BR&gt;
      3006Y&lt;BR&gt;
      3009P&lt;BR&gt;
      3009W&lt;BR&gt;
      3009Y&lt;BR&gt;
      3057J&lt;BR&gt;
      3057L&lt;BR&gt;
      3057P&lt;BR&gt;
      3057Y&lt;BR&gt;
      3059J&lt;BR&gt;
      3059L&lt;BR&gt;
      3059P&lt;BR&gt;
      3059Y&lt;BR&gt;&lt;/FONT&gt;
    &lt;/TD&gt;
    &lt;TD BGCOLOR="#cccccc" ALIGN=CENTER&gt;&lt;FONT FACE=ARIAL SIZE=3&gt;
      -&lt;BR&gt;
      89P&lt;BR&gt;
      89W&lt;BR&gt;
      89X&lt;BR&gt;
      89PH&lt;BR&gt;
      76P&lt;BR&gt;
      89XH&lt;BR&gt;
      78SLT&lt;BR&gt;
      78L&amp;nbsp;ALT&lt;BR&gt;
      56P&amp;nbsp;ALT&lt;BR&gt;
      78P&amp;nbsp;ALT&lt;BR&gt;
      T8S&lt;BR&gt;
      78L&lt;BR&gt;
      56P&lt;BR&gt;
      78P&lt;BR&gt;&lt;/FONT&gt;
    &lt;/TD&gt;
    &lt;TD BGCOLOR="#cccccc" ALIGN=CENTER&gt;&lt;FONT FACE=ARIAL SIZE=3&gt;
      -&lt;BR&gt;
      T18/784&lt;BR&gt;
      783&lt;BR&gt;
      781&lt;BR&gt;
      -&lt;BR&gt;
      -&lt;BR&gt;
      -&lt;BR&gt;
      2199&lt;BR&gt;
      1697/1897&lt;BR&gt;
      1680/1880&lt;BR&gt;
      2187&lt;BR&gt;
      -&lt;BR&gt;
      -&lt;BR&gt;
      -&lt;BR&gt;
      -&lt;BR&gt;&lt;/FONT&gt;
    &lt;/TD&gt;
    &lt;TD BGCOLOR="#cccccc" ALIGN=CENTER&gt;&lt;FONT FACE=ARIAL SIZE=3&gt;
      -&lt;BR&gt;
      8035EKP/CT20/RJ-20P&lt;BR&gt;
      -&lt;BR&gt;
      RJ-20X&lt;BR&gt;
      -&lt;BR&gt;
      -&lt;BR&gt;
      -&lt;BR&gt;
      1211L&lt;BR&gt;
      8012EKQ&amp;nbsp;ALT&lt;BR&gt;
      8012EKR&amp;nbsp;ALT&lt;BR&gt;
      1211P&lt;BR&gt;
      8012EKJ&lt;BR&gt;
      8012EKL&lt;BR&gt;
      8012EKQ&lt;BR&gt;
      8012EKR&lt;BR&gt;&lt;/FONT&gt;
    &lt;/TD&gt;
    &lt;TD BGCOLOR="#cccccc" ALIGN=CENTER&gt;&lt;FONT FACE=ARIAL SIZE=3&gt;
      -&lt;BR&gt;
      2101P&lt;BR&gt;
      2101W&lt;BR&gt;
      2101Y&lt;BR&gt;
      -&lt;BR&gt;
      -&lt;BR&gt;
      -&lt;BR&gt;
      -&lt;BR&gt;
      -&lt;BR&gt;
      -&lt;BR&gt;
      -&lt;BR&gt;
      -&lt;BR&gt;
      2102L&lt;BR&gt;
      2102S&lt;BR&gt;
      2102Y&lt;BR&gt;&lt;/FONT&gt;
    &lt;/TD&gt;
    &lt;TD BGCOLOR="#cccccc" ALIGN=CENTER&gt;&lt;FONT FACE=ARIAL SIZE=3&gt;
      -&lt;BR&gt;
      EVMCOG&lt;BR&gt;
      -&lt;BR&gt;
      -&lt;BR&gt;
      -&lt;BR&gt;
      -&lt;BR&gt;
      -&lt;BR&gt;
      -&lt;BR&gt;
      -&lt;BR&gt;
      -&lt;BR&gt;
      -&lt;BR&gt;
      -&lt;BR&gt;
      -&lt;BR&gt;
      -&lt;BR&gt;
      -&lt;BR&gt;&lt;/FONT&gt;
    &lt;/TD&gt;
    &lt;TD BGCOLOR="#cccccc" ALIGN=CENTER&gt;&lt;FONT FACE=ARIAL SIZE=3&gt;
      -&lt;BR&gt;
      43P&lt;BR&gt;
      43W&lt;BR&gt;
      43Y&lt;BR&gt;
      -&lt;BR&gt;
      -&lt;BR&gt;
      -&lt;BR&gt;
      -&lt;BR&gt;
      40L&lt;BR&gt;
      40P&lt;BR&gt;
      40Y&lt;BR&gt;
      70Y-T602&lt;BR&gt;
      70L&lt;BR&gt;
      70P&lt;BR&gt;
      70Y&lt;BR&gt;&lt;/FONT&gt;
    &lt;/TD&gt;
    &lt;TD BGCOLOR="#cccccc" ALIGN=CENTER&gt;&lt;FONT FACE=ARIAL SIZE=3&gt;
      -&lt;BR&gt;
      -&lt;BR&gt;
      -&lt;BR&gt;
      -&lt;BR&gt;
      -&lt;BR&gt;
      -&lt;BR&gt;
      -&lt;BR&gt;
      -&lt;BR&gt;
      RT/RTR12&lt;BR&gt;
      RT/RTR12&lt;BR&gt;
      RT/RTR12&lt;BR&gt;
      -&lt;BR&gt;
      RJ/RJR12&lt;BR&gt;
      RJ/RJR12&lt;BR&gt;
      RJ/RJR12&lt;BR&gt;&lt;/FONT&gt;
    &lt;/TD&gt;
  &lt;/TR&gt;
  &lt;TR&gt;
    &lt;TD COLSPAN=8&gt;&amp;nbsp;
    &lt;/TD&gt;
  &lt;/TR&gt;
  &lt;TR&gt;
    &lt;TD COLSPAN=8&gt;
      &lt;FONT SIZE=4 FACE=ARIAL&gt;&lt;B&gt;SQUARE MULTI-TURN&lt;/B&gt;&lt;/FONT&gt;
    &lt;/TD&gt;
  &lt;/TR&gt;
  &lt;TR&gt;
   &lt;TD ALIGN=CENTER&gt;
      &lt;FONT SIZE=3 FACE=ARIAL&gt;&lt;B&gt;BOURN&lt;/B&gt;&lt;/FONT&gt;
    &lt;/TD&gt;
    &lt;TD ALIGN=CENTER&gt;
      &lt;FONT SIZE=3 FACE=ARIAL&gt;&lt;B&gt;BI&amp;nbsp;TECH&lt;/B&gt;&lt;/FONT&gt;
    &lt;/TD&gt;
    &lt;TD ALIGN=CENTER&gt;
      &lt;FONT SIZE=3 FACE=ARIAL&gt;&lt;B&gt;DALE-VISHAY&lt;/B&gt;&lt;/FONT&gt;
    &lt;/TD&gt;
    &lt;TD ALIGN=CENTER&gt;
      &lt;FONT SIZE=3 FACE=ARIAL&gt;&lt;B&gt;PHILIPS/MEPCO&lt;/B&gt;&lt;/FONT&gt;
    &lt;/TD&gt;
    &lt;TD ALIGN=CENTER&gt;
      &lt;FONT SIZE=3 FACE=ARIAL&gt;&lt;B&gt;MURATA&lt;/B&gt;&lt;/FONT&gt;
    &lt;/TD&gt;
    &lt;TD ALIGN=CENTER&gt;
      &lt;FONT SIZE=3 FACE=ARIAL&gt;&lt;B&gt;PANASONIC&lt;/B&gt;&lt;/FONT&gt;
    &lt;/TD&gt;
    &lt;TD ALIGN=CENTER&gt;
      &lt;FONT SIZE=3 FACE=ARIAL&gt;&lt;B&gt;SPECTROL&lt;/B&gt;&lt;/FONT&gt;
    &lt;/TD&gt;
    &lt;TD ALIGN=CENTER&gt;
      &lt;FONT SIZE=3 FACE=ARIAL&gt;&lt;B&gt;MILSPEC&lt;/B&gt;&lt;/FONT&gt;
    &lt;/TD&gt;
  &lt;/TR&gt;
  &lt;TR&gt;
    &lt;TD BGCOLOR="#cccccc" ALIGN=CENTER&gt;&lt;FONT FACE=ARIAL SIZE=3&gt;
      3250L&lt;BR&gt;
      3250P&lt;BR&gt;
      3250W&lt;BR&gt;
      3250X&lt;BR&gt;
      3252P&lt;BR&gt;
      3252W&lt;BR&gt;
      3252X&lt;BR&gt;
      3260P&lt;BR&gt;
      3260W&lt;BR&gt;
      3260X&lt;BR&gt;
      3262P&lt;BR&gt;
      3262W&lt;BR&gt;
      3262X&lt;BR&gt;
      3266P&lt;BR&gt;
      3266W&lt;BR&gt;
      3266X&lt;BR&gt;
      3290H&lt;BR&gt;
      3290P&lt;BR&gt;
      3290W&lt;BR&gt;
      3292P&lt;BR&gt;
      3292W&lt;BR&gt;
      3292X&lt;BR&gt;
      3296P&lt;BR&gt;
      3296W&lt;BR&gt;
      3296X&lt;BR&gt;
      3296Y&lt;BR&gt;
      3296Z&lt;BR&gt;
      3299P&lt;BR&gt;
      3299W&lt;BR&gt;
      3299X&lt;BR&gt;
      3299Y&lt;BR&gt;
      3299Z&lt;BR&gt;&lt;/FONT&gt;
    &lt;/TD&gt;
    &lt;TD BGCOLOR="#cccccc" ALIGN=CENTER&gt;&lt;FONT FACE=ARIAL SIZE=3&gt;
      -&lt;BR&gt;
      66P&amp;nbsp;ALT&lt;BR&gt;
      66W&amp;nbsp;ALT&lt;BR&gt;
      66X&amp;nbsp;ALT&lt;BR&gt;
      66P&amp;nbsp;ALT&lt;BR&gt;
      66W&amp;nbsp;ALT&lt;BR&gt;
      66X&amp;nbsp;ALT&lt;BR&gt;
      -&lt;BR&gt;
      64W&amp;nbsp;ALT&lt;BR&gt;
      -&lt;BR&gt;
      64P&amp;nbsp;ALT&lt;BR&gt;
      64W&amp;nbsp;ALT&lt;BR&gt;
      64X&amp;nbsp;ALT&lt;BR&gt;
      64P&lt;BR&gt;
      64W&lt;BR&gt;
      64X&lt;BR&gt;
      66X&amp;nbsp;ALT&lt;BR&gt;
      66P&amp;nbsp;ALT&lt;BR&gt;
      66W&amp;nbsp;ALT&lt;BR&gt;
      66P&lt;BR&gt;
      66W&lt;BR&gt;
      66X&lt;BR&gt;
      67P&lt;BR&gt;
      67W&lt;BR&gt;
      67X&lt;BR&gt;
      67Y&lt;BR&gt;
      67Z&lt;BR&gt;
      68P&lt;BR&gt;
      68W&lt;BR&gt;
      68X&lt;BR&gt;
      67Y&amp;nbsp;ALT&lt;BR&gt;
      67Z&amp;nbsp;ALT&lt;BR&gt;&lt;/FONT&gt;
    &lt;/TD&gt;
    &lt;TD BGCOLOR="#cccccc" ALIGN=CENTER&gt;&lt;FONT FACE=ARIAL SIZE=3&gt;
      5050&lt;BR&gt;
      5091&lt;BR&gt;
      5080&lt;BR&gt;
      5087&lt;BR&gt;
      -&lt;BR&gt;
      -&lt;BR&gt;
      -&lt;BR&gt;
      -&lt;BR&gt;
      -&lt;BR&gt;
      -&lt;BR&gt;
      -&lt;BR&gt;
      T63YB&lt;BR&gt;
      T63XB&lt;BR&gt;
      -&lt;BR&gt;
      -&lt;BR&gt;
      -&lt;BR&gt;
      5887&lt;BR&gt;
      5891&lt;BR&gt;
      5880&lt;BR&gt;
      -&lt;BR&gt;
      -&lt;BR&gt;
      -&lt;BR&gt;
      T93Z&lt;BR&gt;
      T93YA&lt;BR&gt;
      T93XA&lt;BR&gt;
      T93YB&lt;BR&gt;
      T93XB&lt;BR&gt;
      -&lt;BR&gt;
      -&lt;BR&gt;
      -&lt;BR&gt;
      -&lt;BR&gt;
      -&lt;BR&gt;&lt;/FONT&gt;
    &lt;/TD&gt;
    &lt;TD BGCOLOR="#cccccc" ALIGN=CENTER&gt;&lt;FONT FACE=ARIAL SIZE=3&gt;
      -&lt;BR&gt;
      -&lt;BR&gt;
      -&lt;BR&gt;
      -&lt;BR&gt;
      -&lt;BR&gt;
      -&lt;BR&gt;
      -&lt;BR&gt;
      -&lt;BR&gt;
      -&lt;BR&gt;
      -&lt;BR&gt;
      8026EKP&lt;BR&gt;
      8026EKW&lt;BR&gt;
      8026EKM&lt;BR&gt;
      8026EKP&lt;BR&gt;
      8026EKB&lt;BR&gt;
      8026EKM&lt;BR&gt;
      1309X&lt;BR&gt;
      1309P&lt;BR&gt;
      1309W&lt;BR&gt;
      8024EKP&lt;BR&gt;
      8024EKW&lt;BR&gt;
      8024EKN&lt;BR&gt;
      RJ-9P/CT9P&lt;BR&gt;
      RJ-9W&lt;BR&gt;
      RJ-9X&lt;BR&gt;
      -&lt;BR&gt;
      -&lt;BR&gt;
      -&lt;BR&gt;
      -&lt;BR&gt;
      -&lt;BR&gt;
      -&lt;BR&gt;
      -&lt;BR&gt;&lt;/FONT&gt;
    &lt;/TD&gt;
    &lt;TD BGCOLOR="#cccccc" ALIGN=CENTER&gt;&lt;FONT FACE=ARIAL SIZE=3&gt;
      -&lt;BR&gt;
      -&lt;BR&gt;
      -&lt;BR&gt;
      -&lt;BR&gt;
      -&lt;BR&gt;
      -&lt;BR&gt;
      -&lt;BR&gt;
      -&lt;BR&gt;
      -&lt;BR&gt;
      -&lt;BR&gt;
      3103P&lt;BR&gt;
      3103Y&lt;BR&gt;
      3103Z&lt;BR&gt;
      3103P&lt;BR&gt;
      3103Y&lt;BR&gt;
      3103Z&lt;BR&gt;
      -&lt;BR&gt;
      -&lt;BR&gt;
      -&lt;BR&gt;
      -&lt;BR&gt;
      -&lt;BR&gt;
      -&lt;BR&gt;
      3105P/3106P&lt;BR&gt;
      3105W/3106W&lt;BR&gt;
      3105X/3106X&lt;BR&gt;
      3105Y/3106Y&lt;BR&gt;
      3105Z/3105Z&lt;BR&gt;
      3102P&lt;BR&gt;
      3102W&lt;BR&gt;
      3102X&lt;BR&gt;
      3102Y&lt;BR&gt;
      3102Z&lt;BR&gt;&lt;/FONT&gt;
    &lt;/TD&gt;
    &lt;TD BGCOLOR="#cccccc" ALIGN=CENTER&gt;&lt;FONT FACE=ARIAL SIZE=3&gt;
      -&lt;BR&gt;
      -&lt;BR&gt;
      -&lt;BR&gt;
      -&lt;BR&gt;
      -&lt;BR&gt;
      -&lt;BR&gt;
      -&lt;BR&gt;
      -&lt;BR&gt;
      -&lt;BR&gt;
      -&lt;BR&gt;
      -&lt;BR&gt;
      -&lt;BR&gt;
      -&lt;BR&gt;
      -&lt;BR&gt;
      -&lt;BR&gt;
      -&lt;BR&gt;
      -&lt;BR&gt;
      -&lt;BR&gt;
      -&lt;BR&gt;
      -&lt;BR&gt;
      -&lt;BR&gt;
      -&lt;BR&gt;
      EVMCBG&lt;BR&gt;
      EVMCCG&lt;BR&gt;
      -&lt;BR&gt;
      -&lt;BR&gt;
      -&lt;BR&gt;
      -&lt;BR&gt;
      -&lt;BR&gt;
      -&lt;BR&gt;
      -&lt;BR&gt;
      -&lt;BR&gt;&lt;/FONT&gt;
    &lt;/TD&gt;
    &lt;TD BGCOLOR="#cccccc" ALIGN=CENTER&gt;&lt;FONT FACE=ARIAL SIZE=3&gt;
      55-1-X&lt;BR&gt;
      55-4-X&lt;BR&gt;
      55-3-X&lt;BR&gt;
      55-2-X&lt;BR&gt;
      -&lt;BR&gt;
      -&lt;BR&gt;
      -&lt;BR&gt;
      -&lt;BR&gt;
      -&lt;BR&gt;
      -&lt;BR&gt;
      -&lt;BR&gt;
      -&lt;BR&gt;
      -&lt;BR&gt;
      -&lt;BR&gt;
      -&lt;BR&gt;
      -&lt;BR&gt;
      50-2-X&lt;BR&gt;
      50-4-X&lt;BR&gt;
      50-3-X&lt;BR&gt;
      -&lt;BR&gt;
      -&lt;BR&gt;
      -&lt;BR&gt;
      64P&lt;BR&gt;
      64W&lt;BR&gt;
      64X&lt;BR&gt;
      64Y&lt;BR&gt;
      64Z&lt;BR&gt;
      -&lt;BR&gt;
      -&lt;BR&gt;
      -&lt;BR&gt;
      -&lt;BR&gt;
      -&lt;BR&gt;&lt;/FONT&gt;
    &lt;/TD&gt;
    &lt;TD BGCOLOR="#cccccc" ALIGN=CENTER&gt;&lt;FONT FACE=ARIAL SIZE=3&gt;
      RT/RTR22&lt;BR&gt;
      RT/RTR22&lt;BR&gt;
      RT/RTR22&lt;BR&gt;
      RT/RTR22&lt;BR&gt;
      RJ/RJR22&lt;BR&gt;
      RJ/RJR22&lt;BR&gt;
      RJ/RJR22&lt;BR&gt;
      RT/RTR26&lt;BR&gt;
      RT/RTR26&lt;BR&gt;
      RT/RTR26&lt;BR&gt;
      RJ/RJR26&lt;BR&gt;
      RJ/RJR26&lt;BR&gt;
      RJ/RJR26&lt;BR&gt;
      RJ/RJR26&lt;BR&gt;
      RJ/RJR26&lt;BR&gt;
      RJ/RJR26&lt;BR&gt;
      RT/RTR24&lt;BR&gt;
      RT/RTR24&lt;BR&gt;
      RT/RTR24&lt;BR&gt;
      RJ/RJR24&lt;BR&gt;
      RJ/RJR24&lt;BR&gt;
      RJ/RJR24&lt;BR&gt;
      RJ/RJR24&lt;BR&gt;
      RJ/RJR24&lt;BR&gt;
      RJ/RJR24&lt;BR&gt;
      -&lt;BR&gt;
      -&lt;BR&gt;
      -&lt;BR&gt;
      -&lt;BR&gt;
      -&lt;BR&gt;
      -&lt;BR&gt;
      -&lt;BR&gt;&lt;/FONT&gt;
    &lt;/TD&gt;
  &lt;/TR&gt;
  &lt;TR&gt;
    &lt;TD COLSPAN=8&gt;&amp;nbsp;
    &lt;/TD&gt;
  &lt;/TR&gt;
  &lt;TR&gt;
    &lt;TD COLSPAN=8&gt;
      &lt;FONT SIZE=4 FACE=ARIAL&gt;&lt;B&gt;SINGLE TURN&lt;/B&gt;&lt;/FONT&gt;
    &lt;/TD&gt;
  &lt;/TR&gt;
  &lt;TR&gt;
    &lt;TD ALIGN=CENTER&gt;
      &lt;FONT SIZE=3 FACE=ARIAL&gt;&lt;B&gt;BOURN&lt;/B&gt;&lt;/FONT&gt;
    &lt;/TD&gt;
    &lt;TD ALIGN=CENTER&gt;
      &lt;FONT SIZE=3 FACE=ARIAL&gt;&lt;B&gt;BI&amp;nbsp;TECH&lt;/B&gt;&lt;/FONT&gt;
    &lt;/TD&gt;
    &lt;TD ALIGN=CENTER&gt;
      &lt;FONT SIZE=3 FACE=ARIAL&gt;&lt;B&gt;DALE-VISHAY&lt;/B&gt;&lt;/FONT&gt;
    &lt;/TD&gt;
    &lt;TD ALIGN=CENTER&gt;
      &lt;FONT SIZE=3 FACE=ARIAL&gt;&lt;B&gt;PHILIPS/MEPCO&lt;/B&gt;&lt;/FONT&gt;
    &lt;/TD&gt;
    &lt;TD ALIGN=CENTER&gt;
      &lt;FONT SIZE=3 FACE=ARIAL&gt;&lt;B&gt;MURATA&lt;/B&gt;&lt;/FONT&gt;
    &lt;/TD&gt;
    &lt;TD ALIGN=CENTER&gt;
      &lt;FONT SIZE=3 FACE=ARIAL&gt;&lt;B&gt;PANASONIC&lt;/B&gt;&lt;/FONT&gt;
    &lt;/TD&gt;
    &lt;TD ALIGN=CENTER&gt;
      &lt;FONT SIZE=3 FACE=ARIAL&gt;&lt;B&gt;SPECTROL&lt;/B&gt;&lt;/FONT&gt;
    &lt;/TD&gt;
    &lt;TD ALIGN=CENTER&gt;
      &lt;FONT SIZE=3 FACE=ARIAL&gt;&lt;B&gt;MILSPEC&lt;/B&gt;&lt;/FONT&gt;
    &lt;/TD&gt;
  &lt;/TR&gt;
  &lt;TR&gt;
    &lt;TD BGCOLOR="#cccccc" ALIGN=CENTER&gt;&lt;FONT FACE=ARIAL SIZE=3&gt;
      3323P&lt;BR&gt;
      3323S&lt;BR&gt;
      3323W&lt;BR&gt;
      3329H&lt;BR&gt;
      3329P&lt;BR&gt;
      3329W&lt;BR&gt;
      3339H&lt;BR&gt;
      3339P&lt;BR&gt;
      3339W&lt;BR&gt;
      3352E&lt;BR&gt;
      3352H&lt;BR&gt;
      3352K&lt;BR&gt;
      3352P&lt;BR&gt;
      3352T&lt;BR&gt;
      3352V&lt;BR&gt;
      3352W&lt;BR&gt;
      3362H&lt;BR&gt;
      3362M&lt;BR&gt;
      3362P&lt;BR&gt;
      3362R&lt;BR&gt;
      3362S&lt;BR&gt;
      3362U&lt;BR&gt;
      3362W&lt;BR&gt;
      3362X&lt;BR&gt;
      3386B&lt;BR&gt;
      3386C&lt;BR&gt;
      3386F&lt;BR&gt;
      3386H&lt;BR&gt;
      3386K&lt;BR&gt;
      3386M&lt;BR&gt;
      3386P&lt;BR&gt;
      3386S&lt;BR&gt;
      3386W&lt;BR&gt;
      3386X&lt;BR&gt;&lt;/FONT&gt;
    &lt;/TD&gt;
    &lt;TD BGCOLOR="#cccccc" ALIGN=CENTER&gt;&lt;FONT FACE=ARIAL SIZE=3&gt;
      25P&lt;BR&gt;
      25S&lt;BR&gt;
      25RX&lt;BR&gt;
      82P&lt;BR&gt;
      82M&lt;BR&gt;
      82PA&lt;BR&gt;
      -&lt;BR&gt;
      -&lt;BR&gt;
      -&lt;BR&gt;
      91E&lt;BR&gt;
      91X&lt;BR&gt;
      91T&lt;BR&gt;
      91B&lt;BR&gt;
      91A&lt;BR&gt;
      91V&lt;BR&gt;
      91W&lt;BR&gt;
      25W&lt;BR&gt;
      25V&lt;BR&gt;
      25P&lt;BR&gt;
      -&lt;BR&gt;
      25S&lt;BR&gt;
      25U&lt;BR&gt;
      25RX&lt;BR&gt;
      25X&lt;BR&gt;
      72XW&lt;BR&gt;
      72XL&lt;BR&gt;
      72PM&lt;BR&gt;
      72RX&lt;BR&gt;
      -&lt;BR&gt;
      72PX&lt;BR&gt;
      72P&lt;BR&gt;
      72RXW&lt;BR&gt;
      72RXL&lt;BR&gt;
      72X&lt;BR&gt;&lt;/FONT&gt;
    &lt;/TD&gt;
    &lt;TD BGCOLOR="#cccccc" ALIGN=CENTER&gt;&lt;FONT FACE=ARIAL SIZE=3&gt;
      -&lt;BR&gt;
      -&lt;BR&gt;
      -&lt;BR&gt;
      T7YB&lt;BR&gt;
      T7YA&lt;BR&gt;
      -&lt;BR&gt;
      -&lt;BR&gt;
      -&lt;BR&gt;
      -&lt;BR&gt;
      -&lt;BR&gt;
      -&lt;BR&gt;
      -&lt;BR&gt;
      -&lt;BR&gt;
      -&lt;BR&gt;
      -&lt;BR&gt;
      -&lt;BR&gt;
      -&lt;BR&gt;
      TXD&lt;BR&gt;
      TYA&lt;BR&gt;
      TYP&lt;BR&gt;
      -&lt;BR&gt;
      TYD&lt;BR&gt;
      TX&lt;BR&gt;
      -&lt;BR&gt;
      150SX&lt;BR&gt;
      100SX&lt;BR&gt;
      102T&lt;BR&gt;
      101S&lt;BR&gt;
      190T&lt;BR&gt;
      150TX&lt;BR&gt;
      101&lt;BR&gt;
      -&lt;BR&gt;
      -&lt;BR&gt;
      101SX&lt;BR&gt;&lt;/FONT&gt;
    &lt;/TD&gt;
    &lt;TD BGCOLOR="#cccccc" ALIGN=CENTER&gt;&lt;FONT FACE=ARIAL SIZE=3&gt;
      ET6P&lt;BR&gt;
      ET6S&lt;BR&gt;
      ET6X&lt;BR&gt;
      RJ-6W/8014EMW&lt;BR&gt;
      RJ-6P/8014EMP&lt;BR&gt;
      RJ-6X/8014EMX&lt;BR&gt;
      TM7W&lt;BR&gt;
      TM7P&lt;BR&gt;
      TM7X&lt;BR&gt;
      -&lt;BR&gt;
      8017SMS&lt;BR&gt;
      -&lt;BR&gt;
      8017SMB&lt;BR&gt;
      8017SMA&lt;BR&gt;
      -&lt;BR&gt;
      -&lt;BR&gt;
      CT-6W&lt;BR&gt;
      CT-6H&lt;BR&gt;
      CT-6P&lt;BR&gt;
      CT-6R&lt;BR&gt;
      -&lt;BR&gt;
      CT-6V&lt;BR&gt;
      CT-6X&lt;BR&gt;
      -&lt;BR&gt;
      -&lt;BR&gt;
      8038EKV&lt;BR&gt;
      -&lt;BR&gt;
      8038EKX&lt;BR&gt;
      -&lt;BR&gt;
      -&lt;BR&gt;
      8038EKP&lt;BR&gt;
      8038EKZ&lt;BR&gt;
      8038EKW&lt;BR&gt;
      -&lt;BR&gt;&lt;/FONT&gt;
    &lt;/TD&gt;
    &lt;TD BGCOLOR="#cccccc" ALIGN=CENTER&gt;&lt;FONT FACE=ARIAL SIZE=3&gt;
      -&lt;BR&gt;
      -&lt;BR&gt;
      -&lt;BR&gt;
      3321H&lt;BR&gt;
      3321P&lt;BR&gt;
      3321N&lt;BR&gt;
      1102H&lt;BR&gt;
      1102P&lt;BR&gt;
      1102T&lt;BR&gt;
      RVA0911V304A&lt;BR&gt;
      -&lt;BR&gt;
      RVA0911H413A&lt;BR&gt;
      RVG0707V100A&lt;BR&gt;
      RVA0607V(H)306A&lt;BR&gt;
      RVA1214H213A&lt;BR&gt;
      -&lt;BR&gt;
      -&lt;BR&gt;
      -&lt;BR&gt;
      -&lt;BR&gt;
      -&lt;BR&gt;
      -&lt;BR&gt;
      -&lt;BR&gt;
      -&lt;BR&gt;
      -&lt;BR&gt;
      3104B&lt;BR&gt;
      3104C&lt;BR&gt;
      3104F&lt;BR&gt;
      3104H&lt;BR&gt;
      -&lt;BR&gt;
      3104M&lt;BR&gt;
      3104P&lt;BR&gt;
      3104S&lt;BR&gt;
      3104W&lt;BR&gt;
      3104X&lt;BR&gt;&lt;/FONT&gt;
    &lt;/TD&gt;
    &lt;TD BGCOLOR="#cccccc" ALIGN=CENTER&gt;&lt;FONT FACE=ARIAL SIZE=3&gt;
      EVMQ0G&lt;BR&gt;
      EVMQIG&lt;BR&gt;
      EVMQ3G&lt;BR&gt;
      EVMS0G&lt;BR&gt;
      EVMQ0G&lt;BR&gt;
      EVMG0G&lt;BR&gt;
      -&lt;BR&gt;
      -&lt;BR&gt;
      -&lt;BR&gt;
      EVMK4GA00B&lt;BR&gt;
      EVM30GA00B&lt;BR&gt;
      EVMK0GA00B&lt;BR&gt;
      EVM38GA00B&lt;BR&gt;
      EVMB6&lt;BR&gt;
      EVLQ0&lt;BR&gt;
      -&lt;BR&gt;
      EVMMSG&lt;BR&gt;
      EVMMBG&lt;BR&gt;
      EVMMAG&lt;BR&gt;
      -&lt;BR&gt;
      -&lt;BR&gt;
      EVMMCS&lt;BR&gt;
      -&lt;BR&gt;
      -&lt;BR&gt;
      -&lt;BR&gt;
      -&lt;BR&gt;
      -&lt;BR&gt;
      EVMM1&lt;BR&gt;
      -&lt;BR&gt;
      -&lt;BR&gt;
      EVMM0&lt;BR&gt;
      -&lt;BR&gt;
      -&lt;BR&gt;
      EVMM3&lt;BR&gt;&lt;/FONT&gt;
    &lt;/TD&gt;
    &lt;TD BGCOLOR="#cccccc" ALIGN=CENTER&gt;&lt;FONT FACE=ARIAL SIZE=3&gt;
      -&lt;BR&gt;
      -&lt;BR&gt;
      -&lt;BR&gt;
      62-3-1&lt;BR&gt;
      62-1-2&lt;BR&gt;
      -&lt;BR&gt;
      -&lt;BR&gt;
      -&lt;BR&gt;
      -&lt;BR&gt;
      -&lt;BR&gt;
      -&lt;BR&gt;
      -&lt;BR&gt;
      -&lt;BR&gt;
      -&lt;BR&gt;
      -&lt;BR&gt;
      -&lt;BR&gt;
      67R&lt;BR&gt;
      -&lt;BR&gt;
      67P&lt;BR&gt;
      -&lt;BR&gt;
      -&lt;BR&gt;
      -&lt;BR&gt;
      -&lt;BR&gt;
      67X&lt;BR&gt;
      63V&lt;BR&gt;
      63S&lt;BR&gt;
      63M&lt;BR&gt;
      -&lt;BR&gt;
      -&lt;BR&gt;
      63H&lt;BR&gt;
      63P&lt;BR&gt;
      -&lt;BR&gt;
      -&lt;BR&gt;
      63X&lt;BR&gt;&lt;/FONT&gt;
    &lt;/TD&gt;
    &lt;TD BGCOLOR="#cccccc" ALIGN=CENTER&gt;&lt;FONT FACE=ARIAL SIZE=3&gt;
      -&lt;BR&gt;
      -&lt;BR&gt;
      -&lt;BR&gt;
      RJ/RJR50&lt;BR&gt;
      RJ/RJR50&lt;BR&gt;
      RJ/RJR50&lt;BR&gt;
      -&lt;BR&gt;
      -&lt;BR&gt;
      -&lt;BR&gt;
      -&lt;BR&gt;
      -&lt;BR&gt;
      -&lt;BR&gt;
      -&lt;BR&gt;
      -&lt;BR&gt;
      -&lt;BR&gt;
      -&lt;BR&gt;
      -&lt;BR&gt;
      -&lt;BR&gt;
      -&lt;BR&gt;
      -&lt;BR&gt;
      -&lt;BR&gt;
      -&lt;BR&gt;
      -&lt;BR&gt;
      -&lt;BR&gt;
      -&lt;BR&gt;
      -&lt;BR&gt;
      -&lt;BR&gt;
      -&lt;BR&gt;
      -&lt;BR&gt;
      -&lt;BR&gt;
      -&lt;BR&gt;
      -&lt;BR&gt;
      -&lt;BR&gt;
      -&lt;BR&gt;&lt;/FONT&gt;
    &lt;/TD&gt;
  &lt;/TR&gt;
&lt;/TABLE&gt;
&lt;P&gt;&amp;nbsp;&lt;P&gt;
&lt;TABLE BORDER=0 CELLSPACING=1 CELLPADDING=3&gt;
  &lt;TR&gt;
    &lt;TD COLSPAN=7&gt;
      &lt;FONT color="#0000FF" SIZE=4 FACE=ARIAL&gt;&lt;B&gt;SMD TRIM-POT CROSS REFERENCE&lt;/B&gt;&lt;/FONT&gt;
      &lt;P&gt;
      &lt;FONT SIZE=4 FACE=ARIAL&gt;&lt;B&gt;MULTI-TURN&lt;/B&gt;&lt;/FONT&gt;
    &lt;/TD&gt;
  &lt;/TR&gt;
  &lt;TR&gt;
    &lt;TD&gt;
      &lt;FONT SIZE=3 FACE=ARIAL&gt;&lt;B&gt;BOURNS&lt;/B&gt;&lt;/FONT&gt;
    &lt;/TD&gt;
    &lt;TD&gt;
      &lt;FONT SIZE=3 FACE=ARIAL&gt;&lt;B&gt;BI&amp;nbsp;TECH&lt;/B&gt;&lt;/FONT&gt;
    &lt;/TD&gt;
    &lt;TD&gt;
      &lt;FONT SIZE=3 FACE=ARIAL&gt;&lt;B&gt;DALE-VISHAY&lt;/B&gt;&lt;/FONT&gt;
    &lt;/TD&gt;
    &lt;TD&gt;
      &lt;FONT SIZE=3 FACE=ARIAL&gt;&lt;B&gt;PHILIPS/MEPCO&lt;/B&gt;&lt;/FONT&gt;
    &lt;/TD&gt;
    &lt;TD&gt;
      &lt;FONT SIZE=3 FACE=ARIAL&gt;&lt;B&gt;PANASONIC&lt;/B&gt;&lt;/FONT&gt;
    &lt;/TD&gt;
    &lt;TD&gt;
      &lt;FONT SIZE=3 FACE=ARIAL&gt;&lt;B&gt;TOCOS&lt;/B&gt;&lt;/FONT&gt;
    &lt;/TD&gt;
    &lt;TD&gt;
      &lt;FONT SIZE=3 FACE=ARIAL&gt;&lt;B&gt;AUX/KYOCERA&lt;/B&gt;&lt;/FONT&gt;
    &lt;/TD&gt;
  &lt;/TR&gt;
  &lt;TR&gt;
    &lt;TD BGCOLOR="#cccccc" ALIGN=CENTER&gt;&lt;FONT FACE=ARIAL SIZE=3&gt;
      3224G&lt;BR&gt;
      3224J&lt;BR&gt;
      3224W&lt;BR&gt;
      3269P&lt;BR&gt;
      3269W&lt;BR&gt;
      3269X&lt;BR&gt;&lt;/FONT&gt;
    &lt;/TD&gt;
    &lt;TD BGCOLOR="#cccccc" ALIGN=CENTER&gt;&lt;FONT FACE=ARIAL SIZE=3&gt;
      44G&lt;BR&gt;
      44J&lt;BR&gt;
      44W&lt;BR&gt;
      84P&lt;BR&gt;
      84W&lt;BR&gt;
      84X&lt;BR&gt;&lt;/FONT&gt;
    &lt;/TD&gt;
    &lt;TD BGCOLOR="#cccccc" ALIGN=CENTER&gt;&lt;FONT FACE=ARIAL SIZE=3&gt;
      -&lt;BR&gt;
      -&lt;BR&gt;
      -&lt;BR&gt;
      ST63Z&lt;BR&gt;
      ST63Y&lt;BR&gt;
      -&lt;BR&gt;&lt;/FONT&gt;
    &lt;/TD&gt;
    &lt;TD BGCOLOR="#cccccc" ALIGN=CENTER&gt;&lt;FONT FACE=ARIAL SIZE=3&gt;
      -&lt;BR&gt;
      -&lt;BR&gt;
      -&lt;BR&gt;
      ST5P&lt;BR&gt;
      ST5W&lt;BR&gt;
      ST5X&lt;BR&gt;&lt;/FONT&gt;
    &lt;/TD&gt;
    &lt;TD BGCOLOR="#cccccc" ALIGN=CENTER&gt;&lt;FONT FACE=ARIAL SIZE=3&gt;
      -&lt;BR&gt;
      -&lt;BR&gt;
      -&lt;BR&gt;
      -&lt;BR&gt;
      -&lt;BR&gt;
      -&lt;BR&gt;&lt;/FONT&gt;
    &lt;/TD&gt;
    &lt;TD BGCOLOR="#cccccc" ALIGN=CENTER&gt;&lt;FONT FACE=ARIAL SIZE=3&gt;
      -&lt;BR&gt;
      -&lt;BR&gt;
      -&lt;BR&gt;
      -&lt;BR&gt;
      -&lt;BR&gt;
      -&lt;BR&gt;&lt;/FONT&gt;
    &lt;/TD&gt;
    &lt;TD BGCOLOR="#cccccc" ALIGN=CENTER&gt;&lt;FONT FACE=ARIAL SIZE=3&gt;
      -&lt;BR&gt;
      -&lt;BR&gt;
      -&lt;BR&gt;
      -&lt;BR&gt;
      -&lt;BR&gt;
      -&lt;BR&gt;&lt;/FONT&gt;
    &lt;/TD&gt;
  &lt;/TR&gt;
  &lt;TR&gt;
    &lt;TD COLSPAN=7&gt;&amp;nbsp;
    &lt;/TD&gt;
  &lt;/TR&gt;
  &lt;TR&gt;
    &lt;TD COLSPAN=7&gt;
      &lt;FONT SIZE=4 FACE=ARIAL&gt;&lt;B&gt;SINGLE TURN&lt;/B&gt;&lt;/FONT&gt;
    &lt;/TD&gt;
  &lt;/TR&gt;
  &lt;TR&gt;
    &lt;TD&gt;
      &lt;FONT SIZE=3 FACE=ARIAL&gt;&lt;B&gt;BOURNS&lt;/B&gt;&lt;/FONT&gt;
    &lt;/TD&gt;
    &lt;TD&gt;
      &lt;FONT SIZE=3 FACE=ARIAL&gt;&lt;B&gt;BI&amp;nbsp;TECH&lt;/B&gt;&lt;/FONT&gt;
    &lt;/TD&gt;
    &lt;TD&gt;
      &lt;FONT SIZE=3 FACE=ARIAL&gt;&lt;B&gt;DALE-VISHAY&lt;/B&gt;&lt;/FONT&gt;
    &lt;/TD&gt;
    &lt;TD&gt;
      &lt;FONT SIZE=3 FACE=ARIAL&gt;&lt;B&gt;PHILIPS/MEPCO&lt;/B&gt;&lt;/FONT&gt;
    &lt;/TD&gt;
    &lt;TD&gt;
      &lt;FONT SIZE=3 FACE=ARIAL&gt;&lt;B&gt;PANASONIC&lt;/B&gt;&lt;/FONT&gt;
    &lt;/TD&gt;
    &lt;TD&gt;
      &lt;FONT SIZE=3 FACE=ARIAL&gt;&lt;B&gt;TOCOS&lt;/B&gt;&lt;/FONT&gt;
    &lt;/TD&gt;
    &lt;TD&gt;
      &lt;FONT SIZE=3 FACE=ARIAL&gt;&lt;B&gt;AUX/KYOCERA&lt;/B&gt;&lt;/FONT&gt;
    &lt;/TD&gt;
  &lt;/TR&gt;
  &lt;TR&gt;
    &lt;TD BGCOLOR="#cccccc" ALIGN=CENTER&gt;&lt;FONT FACE=ARIAL SIZE=3&gt;
      3314G&lt;BR&gt;
      3314J&lt;BR&gt;
      3364A/B&lt;BR&gt;
      3364C/D&lt;BR&gt;
      3364W/X&lt;BR&gt;
      3313G&lt;BR&gt;
      3313J&lt;BR&gt;&lt;/FONT&gt;
    &lt;/TD&gt;
    &lt;TD BGCOLOR="#cccccc" ALIGN=CENTER&gt;&lt;FONT FACE=ARIAL SIZE=3&gt;
      23B&lt;BR&gt;
      23A&lt;BR&gt;
      21X&lt;BR&gt;
      21W&lt;BR&gt;
      -&lt;BR&gt;
      22B&lt;BR&gt;
      22A&lt;BR&gt;&lt;/FONT&gt;
    &lt;/TD&gt;
    &lt;TD BGCOLOR="#cccccc" ALIGN=CENTER&gt;&lt;FONT FACE=ARIAL SIZE=3&gt;
      ST5YL/ST53YL&lt;BR&gt;
      ST5YJ/5T53YJ&lt;BR&gt;
      ST-23A&lt;BR&gt;
      ST-22B&lt;BR&gt;
      ST-22&lt;BR&gt;
      -&lt;BR&gt;
      -&lt;BR&gt;&lt;/FONT&gt;
    &lt;/TD&gt;
    &lt;TD BGCOLOR="#cccccc" ALIGN=CENTER&gt;&lt;FONT FACE=ARIAL SIZE=3&gt;
      ST-4B&lt;BR&gt;
      ST-4A&lt;BR&gt;
      -&lt;BR&gt;
      -&lt;BR&gt;
      -&lt;BR&gt;
      ST-3B&lt;BR&gt;
      ST-3A&lt;BR&gt;&lt;/FONT&gt;
    &lt;/TD&gt;
    &lt;TD BGCOLOR="#cccccc" ALIGN=CENTER&gt;&lt;FONT FACE=ARIAL SIZE=3&gt;
      -&lt;BR&gt;
      EVM-6YS&lt;BR&gt;
      EVM-1E&lt;BR&gt;
      EVM-1G&lt;BR&gt;
      EVM-1D&lt;BR&gt;
      -&lt;BR&gt;
      -&lt;BR&gt;&lt;/FONT&gt;
    &lt;/TD&gt;
    &lt;TD BGCOLOR="#cccccc" ALIGN=CENTER&gt;&lt;FONT FACE=ARIAL SIZE=3&gt;
      G4B&lt;BR&gt;
      G4A&lt;BR&gt;
      TR04-3S1&lt;BR&gt;
      TRG04-2S1&lt;BR&gt;
      -&lt;BR&gt;
      -&lt;BR&gt;
      -&lt;BR&gt;&lt;/FONT&gt;
    &lt;/TD&gt;
    &lt;TD BGCOLOR="#cccccc" ALIGN=CENTER&gt;&lt;FONT FACE=ARIAL SIZE=3&gt;
      -&lt;BR&gt;
      -&lt;BR&gt;
      DVR-43A&lt;BR&gt;
      CVR-42C&lt;BR&gt;
      CVR-42A/C&lt;BR&gt;
      -&lt;BR&gt;
      -&lt;BR&gt;&lt;/FONT&gt;
    &lt;/TD&gt;
  &lt;/TR&gt;
&lt;/TABLE&gt;
&lt;P&gt;
&lt;FONT SIZE=4 FACE=ARIAL&gt;&lt;B&gt;ALT =&amp;nbsp;ALTERNATE&lt;/B&gt;&lt;/FONT&gt;
&lt;P&gt;

&amp;nbsp;
&lt;P&gt;
&lt;/td&gt;
&lt;/tr&gt;
&lt;/table&gt;</description>
<packages>
<package name="C0805K">
<description>&lt;b&gt;Ceramic Chip Capacitor KEMET 0805 reflow solder&lt;/b&gt;&lt;p&gt;
Metric Code Size 2012</description>
<wire x1="-0.925" y1="0.6" x2="0.925" y2="0.6" width="0.1016" layer="51"/>
<wire x1="0.925" y1="-0.6" x2="-0.925" y2="-0.6" width="0.1016" layer="51"/>
<smd name="1" x="-1" y="0" dx="1.3" dy="1.6" layer="1"/>
<smd name="2" x="1" y="0" dx="1.3" dy="1.6" layer="1"/>
<text x="-1" y="0.875" size="1.016" layer="25">&gt;NAME</text>
<text x="-1" y="-1.9" size="1.016" layer="27">&gt;VALUE</text>
<rectangle x1="-1" y1="-0.65" x2="-0.5" y2="0.65" layer="51"/>
<rectangle x1="0.5" y1="-0.65" x2="1" y2="0.65" layer="51"/>
</package>
<package name="M0805">
<description>&lt;b&gt;RESISTOR&lt;/b&gt;&lt;p&gt;
MELF 0.10 W</description>
<wire x1="-1.973" y1="0.983" x2="1.973" y2="0.983" width="0.0508" layer="39"/>
<wire x1="1.973" y1="-0.983" x2="-1.973" y2="-0.983" width="0.0508" layer="39"/>
<wire x1="-1.973" y1="-0.983" x2="-1.973" y2="0.983" width="0.0508" layer="39"/>
<wire x1="1.973" y1="0.983" x2="1.973" y2="-0.983" width="0.0508" layer="39"/>
<wire x1="0.7112" y1="0.635" x2="-0.7112" y2="0.635" width="0.1524" layer="51"/>
<wire x1="0.7112" y1="-0.635" x2="-0.7112" y2="-0.635" width="0.1524" layer="51"/>
<smd name="1" x="-0.95" y="0" dx="1.3" dy="1.6" layer="1"/>
<smd name="2" x="0.95" y="0" dx="1.3" dy="1.6" layer="1"/>
<text x="-1.27" y="1.27" size="1.27" layer="25">&gt;NAME</text>
<text x="-1.27" y="-2.54" size="1.27" layer="27">&gt;VALUE</text>
<rectangle x1="-1.0414" y1="-0.7112" x2="-0.6858" y2="0.7112" layer="51"/>
<rectangle x1="0.6858" y1="-0.7112" x2="1.0414" y2="0.7112" layer="51"/>
<rectangle x1="-0.1999" y1="-0.5999" x2="0.1999" y2="0.5999" layer="35"/>
</package>
</packages>
</library>
<library name="pinaculo - conectores">
<packages>
<package name="BARRA_SMD_8PINOS">
<smd name="4" x="3.51" y="1.27" dx="5" dy="1.2" layer="1"/>
<smd name="2" x="3.51" y="3.81" dx="5" dy="1.2" layer="1"/>
<smd name="6" x="3.51" y="-1.27" dx="5" dy="1.2" layer="1"/>
<smd name="8" x="3.51" y="-3.81" dx="5" dy="1.2" layer="1"/>
<smd name="7" x="-3.51" y="-3.81" dx="5" dy="1.2" layer="1"/>
<smd name="5" x="-3.51" y="-1.27" dx="5" dy="1.2" layer="1"/>
<smd name="3" x="-3.51" y="1.27" dx="5" dy="1.2" layer="1"/>
<smd name="1" x="-3.51" y="3.81" dx="5" dy="1.2" layer="1"/>
<wire x1="-2.5" y1="0" x2="-2.5" y2="4.85" width="0.2" layer="51"/>
<wire x1="-2.5" y1="4.85" x2="-0.1" y2="4.85" width="0.2" layer="21"/>
<wire x1="-0.1" y1="4.85" x2="2.5" y2="4.85" width="0.2" layer="21"/>
<wire x1="2.5" y1="4.85" x2="2.5" y2="0" width="0.2" layer="51"/>
<wire x1="2.5" y1="0" x2="2.5" y2="-4.85" width="0.2" layer="51"/>
<wire x1="2.5" y1="-4.85" x2="0.8" y2="-4.85" width="0.2" layer="21"/>
<wire x1="0.8" y1="-4.85" x2="-2.5" y2="-4.85" width="0.2" layer="21"/>
<wire x1="-2.5" y1="-4.85" x2="-2.5" y2="0" width="0.2" layer="51"/>
<circle x="-3.20875" y="5.50875" radius="0.3" width="0.3" layer="21"/>
<text x="-6" y="6.3" size="1.27" layer="25">&gt;NAME</text>
</package>
</packages>
</library>
<library name="analog-devices">
<description>&lt;b&gt;Analog Devices Components&lt;/b&gt;&lt;p&gt;
&lt;author&gt;Created by librarian@cadsoft.de&lt;/author&gt;</description>
<packages>
<package name="SO8">
<description>&lt;b&gt;8-Lead Small Outline IC&lt;/b&gt; (SO-8)&lt;p&gt;
Source: http://www.analog.com/UploadedFiles/Data_Sheets/703465986AD8611_2_0.pdf</description>
<wire x1="2.4" y1="1.9" x2="2.4" y2="-1.4" width="0.2032" layer="51"/>
<wire x1="2.4" y1="-1.4" x2="2.4" y2="-1.9" width="0.2032" layer="51"/>
<wire x1="2.4" y1="-1.9" x2="-2.4" y2="-1.9" width="0.2032" layer="51"/>
<wire x1="-2.4" y1="-1.9" x2="-2.4" y2="-1.4" width="0.2032" layer="51"/>
<wire x1="-2.4" y1="-1.4" x2="-2.4" y2="1.9" width="0.2032" layer="51"/>
<wire x1="-2.4" y1="1.9" x2="2.4" y2="1.9" width="0.2032" layer="51"/>
<wire x1="2.4" y1="-1.4" x2="-2.4" y2="-1.4" width="0.2032" layer="51"/>
<smd name="2" x="-0.635" y="-2.6" dx="0.6" dy="2.2" layer="1"/>
<smd name="7" x="-0.635" y="2.6" dx="0.6" dy="2.2" layer="1"/>
<smd name="1" x="-1.905" y="-2.6" dx="0.6" dy="2.2" layer="1"/>
<smd name="3" x="0.635" y="-2.6" dx="0.6" dy="2.2" layer="1"/>
<smd name="4" x="1.905" y="-2.6" dx="0.6" dy="2.2" layer="1"/>
<smd name="8" x="-1.905" y="2.6" dx="0.6" dy="2.2" layer="1"/>
<smd name="6" x="0.635" y="2.6" dx="0.6" dy="2.2" layer="1"/>
<smd name="5" x="1.905" y="2.6" dx="0.6" dy="2.2" layer="1"/>
<text x="-3.175" y="-1.905" size="1.27" layer="25" rot="R90">&gt;NAME</text>
<text x="4.445" y="-1.905" size="1.27" layer="27" rot="R90">&gt;VALUE</text>
<rectangle x1="-2.1501" y1="-3.1001" x2="-1.6599" y2="-2" layer="51"/>
<rectangle x1="-0.8801" y1="-3.1001" x2="-0.3899" y2="-2" layer="51"/>
<rectangle x1="0.3899" y1="-3.1001" x2="0.8801" y2="-2" layer="51"/>
<rectangle x1="1.6599" y1="-3.1001" x2="2.1501" y2="-2" layer="51"/>
<rectangle x1="1.6599" y1="2" x2="2.1501" y2="3.1001" layer="51"/>
<rectangle x1="0.3899" y1="2" x2="0.8801" y2="3.1001" layer="51"/>
<rectangle x1="-0.8801" y1="2" x2="-0.3899" y2="3.1001" layer="51"/>
<rectangle x1="-2.1501" y1="2" x2="-1.6599" y2="3.1001" layer="51"/>
</package>
</packages>
</library>
<library name="linear">
<description>&lt;b&gt;Linear Devices&lt;/b&gt;&lt;p&gt;
Operational amplifiers,  comparators, voltage regulators, ADCs, DACs, etc.&lt;p&gt;
&lt;author&gt;Created by librarian@cadsoft.de&lt;/author&gt;</description>
<packages>
<package name="SO08">
<description>&lt;b&gt;Small Outline Package 8&lt;/b&gt;&lt;br&gt;
NS Package M08A</description>
<wire x1="2.4" y1="1.9" x2="2.4" y2="-1.4" width="0.2032" layer="51"/>
<wire x1="2.4" y1="-1.4" x2="2.4" y2="-1.9" width="0.2032" layer="51"/>
<wire x1="2.4" y1="-1.9" x2="-2.4" y2="-1.9" width="0.2032" layer="51"/>
<wire x1="-2.4" y1="-1.9" x2="-2.4" y2="-1.4" width="0.2032" layer="51"/>
<wire x1="-2.4" y1="-1.4" x2="-2.4" y2="1.9" width="0.2032" layer="51"/>
<wire x1="-2.4" y1="1.9" x2="2.4" y2="1.9" width="0.2032" layer="51"/>
<wire x1="2.4" y1="-1.4" x2="-2.4" y2="-1.4" width="0.2032" layer="51"/>
<smd name="2" x="-0.635" y="-2.6" dx="0.6" dy="2.2" layer="1"/>
<smd name="7" x="-0.635" y="2.6" dx="0.6" dy="2.2" layer="1"/>
<smd name="1" x="-1.905" y="-2.6" dx="0.6" dy="2.2" layer="1"/>
<smd name="3" x="0.635" y="-2.6" dx="0.6" dy="2.2" layer="1"/>
<smd name="4" x="1.905" y="-2.6" dx="0.6" dy="2.2" layer="1"/>
<smd name="8" x="-1.905" y="2.6" dx="0.6" dy="2.2" layer="1"/>
<smd name="6" x="0.635" y="2.6" dx="0.6" dy="2.2" layer="1"/>
<smd name="5" x="1.905" y="2.6" dx="0.6" dy="2.2" layer="1"/>
<text x="-2.667" y="-1.905" size="1.27" layer="25" rot="R90">&gt;NAME</text>
<text x="3.937" y="-1.905" size="1.27" layer="27" rot="R90">&gt;VALUE</text>
<rectangle x1="-2.15" y1="-3.1" x2="-1.66" y2="-2" layer="51"/>
<rectangle x1="-0.88" y1="-3.1" x2="-0.39" y2="-2" layer="51"/>
<rectangle x1="0.39" y1="-3.1" x2="0.88" y2="-2" layer="51"/>
<rectangle x1="1.66" y1="-3.1" x2="2.15" y2="-2" layer="51"/>
<rectangle x1="1.66" y1="2" x2="2.15" y2="3.1" layer="51"/>
<rectangle x1="0.39" y1="2" x2="0.88" y2="3.1" layer="51"/>
<rectangle x1="-0.88" y1="2" x2="-0.39" y2="3.1" layer="51"/>
<rectangle x1="-2.15" y1="2" x2="-1.66" y2="3.1" layer="51"/>
</package>
</packages>
</library>
<library name="diode">
<description>&lt;b&gt;Diodes&lt;/b&gt;&lt;p&gt;
Based on the following sources:
&lt;ul&gt;
&lt;li&gt;Motorola : www.onsemi.com
&lt;li&gt;Fairchild : www.fairchildsemi.com
&lt;li&gt;Philips : www.semiconductors.com
&lt;li&gt;Vishay : www.vishay.de
&lt;/ul&gt;
&lt;author&gt;Created by librarian@cadsoft.de&lt;/author&gt;</description>
<packages>
<package name="SOT23">
<description>&lt;B&gt;DIODE&lt;/B&gt;</description>
<wire x1="1.4224" y1="0.6604" x2="1.4224" y2="-0.6604" width="0.1524" layer="51"/>
<wire x1="1.4224" y1="-0.6604" x2="-1.4224" y2="-0.6604" width="0.1524" layer="51"/>
<wire x1="-1.4224" y1="-0.6604" x2="-1.4224" y2="0.6604" width="0.1524" layer="51"/>
<wire x1="-1.4224" y1="0.6604" x2="1.4224" y2="0.6604" width="0.1524" layer="51"/>
<wire x1="-1.4224" y1="-0.1524" x2="-1.4224" y2="0.6604" width="0.1524" layer="21"/>
<wire x1="-1.4224" y1="0.6604" x2="-0.8636" y2="0.6604" width="0.1524" layer="21"/>
<wire x1="1.4224" y1="0.6604" x2="1.4224" y2="-0.1524" width="0.1524" layer="21"/>
<wire x1="0.8636" y1="0.6604" x2="1.4224" y2="0.6604" width="0.1524" layer="21"/>
<smd name="3" x="0" y="1.1" dx="1" dy="1.4" layer="1"/>
<smd name="2" x="0.95" y="-1.1" dx="1" dy="1.4" layer="1"/>
<smd name="1" x="-0.95" y="-1.1" dx="1" dy="1.4" layer="1"/>
<text x="-1.905" y="1.905" size="1.27" layer="25">&gt;NAME</text>
<text x="-1.905" y="-3.175" size="1.27" layer="27">&gt;VALUE</text>
<rectangle x1="-0.2286" y1="0.7112" x2="0.2286" y2="1.2954" layer="51"/>
<rectangle x1="0.7112" y1="-1.2954" x2="1.1684" y2="-0.7112" layer="51"/>
<rectangle x1="-1.1684" y1="-1.2954" x2="-0.7112" y2="-0.7112" layer="51"/>
</package>
</packages>
</library>
<library name="texas">
<description>&lt;b&gt;Texas Instruments Devices&lt;/b&gt;&lt;p&gt;
 &lt;author&gt;Created by librarian@cadsoft.de&lt;/author&gt;</description>
<packages>
<package name="SO-16">
<description>&lt;b&gt;Small Outline Integrated Circuit&lt;/b&gt;</description>
<wire x1="-4.9022" y1="-1.8542" x2="4.9022" y2="-1.8542" width="0.1524" layer="21"/>
<wire x1="4.9022" y1="-1.8542" x2="4.9022" y2="1.7272" width="0.1524" layer="21"/>
<wire x1="4.9022" y1="1.7272" x2="-4.9022" y2="1.7272" width="0.1524" layer="21"/>
<wire x1="-4.9022" y1="1.7272" x2="-4.9022" y2="-1.8542" width="0.1524" layer="21"/>
<wire x1="-5.144" y1="3.601" x2="-5.144" y2="-3.601" width="0.2" layer="39"/>
<wire x1="-5.144" y1="-3.601" x2="5.144" y2="-3.601" width="0.2" layer="39"/>
<wire x1="5.144" y1="-3.601" x2="5.144" y2="3.601" width="0.2" layer="39"/>
<wire x1="5.144" y1="3.601" x2="-5.144" y2="3.601" width="0.2" layer="39"/>
<circle x="-4.1148" y="-1.016" radius="0.5334" width="0.1524" layer="21"/>
<smd name="1" x="-4.445" y="-2.794" dx="0.6096" dy="1.524" layer="1"/>
<smd name="16" x="-4.445" y="2.667" dx="0.6096" dy="1.524" layer="1"/>
<smd name="2" x="-3.175" y="-2.794" dx="0.6096" dy="1.524" layer="1"/>
<smd name="3" x="-1.905" y="-2.794" dx="0.6096" dy="1.524" layer="1"/>
<smd name="15" x="-3.175" y="2.667" dx="0.6096" dy="1.524" layer="1"/>
<smd name="14" x="-1.905" y="2.667" dx="0.6096" dy="1.524" layer="1"/>
<smd name="4" x="-0.635" y="-2.794" dx="0.6096" dy="1.524" layer="1"/>
<smd name="13" x="-0.635" y="2.667" dx="0.6096" dy="1.524" layer="1"/>
<smd name="5" x="0.635" y="-2.794" dx="0.6096" dy="1.524" layer="1"/>
<smd name="12" x="0.635" y="2.667" dx="0.6096" dy="1.524" layer="1"/>
<smd name="6" x="1.905" y="-2.794" dx="0.6096" dy="1.524" layer="1"/>
<smd name="7" x="3.175" y="-2.794" dx="0.6096" dy="1.524" layer="1"/>
<smd name="11" x="1.905" y="2.667" dx="0.6096" dy="1.524" layer="1"/>
<smd name="10" x="3.175" y="2.667" dx="0.6096" dy="1.524" layer="1"/>
<smd name="8" x="4.445" y="-2.794" dx="0.6096" dy="1.524" layer="1"/>
<smd name="9" x="4.445" y="2.667" dx="0.6096" dy="1.524" layer="1"/>
<text x="-3.175" y="0.254" size="1.27" layer="25" ratio="10">&gt;NAME</text>
<text x="-3.175" y="-1.524" size="1.27" layer="27" ratio="10">&gt;VALUE</text>
<text x="-3.683" y="-0.127" size="1.016" layer="21" ratio="10" rot="R90">16</text>
<rectangle x1="4.2418" y1="1.7526" x2="4.6482" y2="2.7686" layer="51"/>
<rectangle x1="2.9718" y1="1.7526" x2="3.3782" y2="2.7686" layer="51"/>
<rectangle x1="1.7018" y1="1.7526" x2="2.1082" y2="2.7686" layer="51"/>
<rectangle x1="0.4318" y1="1.7526" x2="0.8382" y2="2.7686" layer="51"/>
<rectangle x1="-0.8382" y1="1.7526" x2="-0.4318" y2="2.7686" layer="51"/>
<rectangle x1="-2.1082" y1="1.7526" x2="-1.7018" y2="2.7686" layer="51"/>
<rectangle x1="-3.3782" y1="1.7526" x2="-2.9718" y2="2.7686" layer="51"/>
<rectangle x1="-4.6482" y1="1.7526" x2="-4.2418" y2="2.7686" layer="51"/>
<rectangle x1="-4.6482" y1="-2.8956" x2="-4.2418" y2="-1.8796" layer="51"/>
<rectangle x1="-3.3782" y1="-2.8956" x2="-2.9718" y2="-1.8796" layer="51"/>
<rectangle x1="-2.1082" y1="-2.8956" x2="-1.7018" y2="-1.8796" layer="51"/>
<rectangle x1="-0.8382" y1="-2.8956" x2="-0.4318" y2="-1.8796" layer="51"/>
<rectangle x1="0.4318" y1="-2.8956" x2="0.8382" y2="-1.8796" layer="51"/>
<rectangle x1="1.7018" y1="-2.8956" x2="2.1082" y2="-1.8796" layer="51"/>
<rectangle x1="2.9718" y1="-2.8956" x2="3.3782" y2="-1.8796" layer="51"/>
<rectangle x1="4.2418" y1="-2.8956" x2="4.6482" y2="-1.8796" layer="51"/>
</package>
</packages>
</library>
</libraries>
<attributes>
</attributes>
<variantdefs>
</variantdefs>
<classes>
<class number="0" name="default" width="0" drill="0">
</class>
</classes>
<designrules name="default">
<description language="de">&lt;b&gt;EAGLE Design Rules&lt;/b&gt;
&lt;p&gt;
Die Standard-Design-Rules sind so gewählt, dass sie für 
die meisten Anwendungen passen. Sollte ihre Platine 
besondere Anforderungen haben, treffen Sie die erforderlichen
Einstellungen hier und speichern die Design Rules unter 
einem neuen Namen ab.</description>
<description language="en">&lt;b&gt;EAGLE Design Rules&lt;/b&gt;
&lt;p&gt;
The default Design Rules have been set to cover
a wide range of applications. Your particular design
may have different requirements, so please make the
necessary adjustments and save your customized
design rules under a new name.</description>
<param name="layerSetup" value="(1*16)"/>
<param name="mtCopper" value="0.035mm 0.035mm 0.035mm 0.035mm 0.035mm 0.035mm 0.035mm 0.035mm 0.035mm 0.035mm 0.035mm 0.035mm 0.035mm 0.035mm 0.035mm 0.035mm"/>
<param name="mtIsolate" value="1.5mm 0.15mm 0.2mm 0.15mm 0.2mm 0.15mm 0.2mm 0.15mm 0.2mm 0.15mm 0.2mm 0.15mm 0.2mm 0.15mm 0.2mm"/>
<param name="mdWireWire" value="8mil"/>
<param name="mdWirePad" value="8mil"/>
<param name="mdWireVia" value="8mil"/>
<param name="mdPadPad" value="8mil"/>
<param name="mdPadVia" value="8mil"/>
<param name="mdViaVia" value="8mil"/>
<param name="mdSmdPad" value="8mil"/>
<param name="mdSmdVia" value="8mil"/>
<param name="mdSmdSmd" value="8mil"/>
<param name="mdViaViaSameLayer" value="8mil"/>
<param name="mnLayersViaInSmd" value="2"/>
<param name="mdCopperDimension" value="40mil"/>
<param name="mdDrill" value="8mil"/>
<param name="mdSmdStop" value="0mil"/>
<param name="msWidth" value="10mil"/>
<param name="msDrill" value="24mil"/>
<param name="msMicroVia" value="9.99mm"/>
<param name="msBlindViaRatio" value="0.5"/>
<param name="rvPadTop" value="0.25"/>
<param name="rvPadInner" value="0.25"/>
<param name="rvPadBottom" value="0.25"/>
<param name="rvViaOuter" value="0.25"/>
<param name="rvViaInner" value="0.25"/>
<param name="rvMicroViaOuter" value="0.25"/>
<param name="rvMicroViaInner" value="0.25"/>
<param name="rlMinPadTop" value="10mil"/>
<param name="rlMaxPadTop" value="20mil"/>
<param name="rlMinPadInner" value="10mil"/>
<param name="rlMaxPadInner" value="20mil"/>
<param name="rlMinPadBottom" value="10mil"/>
<param name="rlMaxPadBottom" value="20mil"/>
<param name="rlMinViaOuter" value="8mil"/>
<param name="rlMaxViaOuter" value="20mil"/>
<param name="rlMinViaInner" value="8mil"/>
<param name="rlMaxViaInner" value="20mil"/>
<param name="rlMinMicroViaOuter" value="4mil"/>
<param name="rlMaxMicroViaOuter" value="20mil"/>
<param name="rlMinMicroViaInner" value="4mil"/>
<param name="rlMaxMicroViaInner" value="20mil"/>
<param name="psTop" value="-1"/>
<param name="psBottom" value="-1"/>
<param name="psFirst" value="-1"/>
<param name="psElongationLong" value="100"/>
<param name="psElongationOffset" value="100"/>
<param name="mvStopFrame" value="1"/>
<param name="mvCreamFrame" value="0"/>
<param name="mlMinStopFrame" value="4mil"/>
<param name="mlMaxStopFrame" value="4mil"/>
<param name="mlMinCreamFrame" value="0mil"/>
<param name="mlMaxCreamFrame" value="0mil"/>
<param name="mlViaStopLimit" value="0mil"/>
<param name="srRoundness" value="0"/>
<param name="srMinRoundness" value="0mil"/>
<param name="srMaxRoundness" value="0mil"/>
<param name="slThermalIsolate" value="10mil"/>
<param name="slThermalsForVias" value="0"/>
<param name="dpMaxLengthDifference" value="10mm"/>
<param name="dpGapFactor" value="2.5"/>
<param name="checkGrid" value="0"/>
<param name="checkAngle" value="0"/>
<param name="checkFont" value="1"/>
<param name="checkRestrict" value="1"/>
<param name="useDiameter" value="13"/>
<param name="maxErrors" value="50"/>
</designrules>
<autorouter>
<pass name="Default">
<param name="RoutingGrid" value="50mil"/>
<param name="AutoGrid" value="1"/>
<param name="Efforts" value="0"/>
<param name="TopRouterVariant" value="1"/>
<param name="tpViaShape" value="round"/>
<param name="PrefDir.1" value="a"/>
<param name="PrefDir.2" value="0"/>
<param name="PrefDir.3" value="0"/>
<param name="PrefDir.4" value="0"/>
<param name="PrefDir.5" value="0"/>
<param name="PrefDir.6" value="0"/>
<param name="PrefDir.7" value="0"/>
<param name="PrefDir.8" value="0"/>
<param name="PrefDir.9" value="0"/>
<param name="PrefDir.10" value="0"/>
<param name="PrefDir.11" value="0"/>
<param name="PrefDir.12" value="0"/>
<param name="PrefDir.13" value="0"/>
<param name="PrefDir.14" value="0"/>
<param name="PrefDir.15" value="0"/>
<param name="PrefDir.16" value="a"/>
<param name="cfVia" value="8"/>
<param name="cfNonPref" value="5"/>
<param name="cfChangeDir" value="2"/>
<param name="cfOrthStep" value="2"/>
<param name="cfDiagStep" value="3"/>
<param name="cfExtdStep" value="0"/>
<param name="cfBonusStep" value="1"/>
<param name="cfMalusStep" value="1"/>
<param name="cfPadImpact" value="4"/>
<param name="cfSmdImpact" value="4"/>
<param name="cfBusImpact" value="0"/>
<param name="cfHugging" value="3"/>
<param name="cfAvoid" value="4"/>
<param name="cfPolygon" value="10"/>
<param name="cfBase.1" value="0"/>
<param name="cfBase.2" value="1"/>
<param name="cfBase.3" value="1"/>
<param name="cfBase.4" value="1"/>
<param name="cfBase.5" value="1"/>
<param name="cfBase.6" value="1"/>
<param name="cfBase.7" value="1"/>
<param name="cfBase.8" value="1"/>
<param name="cfBase.9" value="1"/>
<param name="cfBase.10" value="1"/>
<param name="cfBase.11" value="1"/>
<param name="cfBase.12" value="1"/>
<param name="cfBase.13" value="1"/>
<param name="cfBase.14" value="1"/>
<param name="cfBase.15" value="1"/>
<param name="cfBase.16" value="0"/>
<param name="mnVias" value="20"/>
<param name="mnSegments" value="9999"/>
<param name="mnExtdSteps" value="9999"/>
<param name="mnRipupLevel" value="10"/>
<param name="mnRipupSteps" value="100"/>
<param name="mnRipupTotal" value="100"/>
</pass>
<pass name="Follow-me" refer="Default" active="yes">
</pass>
<pass name="Busses" refer="Default" active="yes">
<param name="cfNonPref" value="4"/>
<param name="cfBusImpact" value="4"/>
<param name="cfHugging" value="0"/>
<param name="mnVias" value="0"/>
</pass>
<pass name="Route" refer="Default" active="yes">
</pass>
<pass name="Optimize1" refer="Default" active="yes">
<param name="cfVia" value="99"/>
<param name="cfExtdStep" value="10"/>
<param name="cfHugging" value="1"/>
<param name="mnExtdSteps" value="1"/>
<param name="mnRipupLevel" value="0"/>
</pass>
<pass name="Optimize2" refer="Optimize1" active="yes">
<param name="cfNonPref" value="0"/>
<param name="cfChangeDir" value="6"/>
<param name="cfExtdStep" value="0"/>
<param name="cfBonusStep" value="2"/>
<param name="cfMalusStep" value="2"/>
<param name="cfPadImpact" value="2"/>
<param name="cfSmdImpact" value="2"/>
<param name="cfHugging" value="0"/>
</pass>
<pass name="Optimize3" refer="Optimize2" active="yes">
<param name="cfChangeDir" value="8"/>
<param name="cfPadImpact" value="0"/>
<param name="cfSmdImpact" value="0"/>
</pass>
<pass name="Optimize4" refer="Optimize3" active="yes">
<param name="cfChangeDir" value="25"/>
</pass>
</autorouter>
<elements>
<element name="C1" library="rcl" package="C0805K" value="10p" x="-25.4" y="44.45"/>
<element name="C10" library="rcl" package="C0805K" value="0,1uF" x="-16.51" y="44.45"/>
<element name="C2" library="rcl" package="C0805K" value="10p" x="-29.21" y="44.45"/>
<element name="C3" library="rcl" package="C0805K" value="0,1uF" x="-46.99" y="38.1"/>
<element name="C4" library="rcl" package="C0805K" value="330nF" x="-31.75" y="38.1"/>
<element name="C5" library="rcl" package="C0805K" value="1uF" x="-33.02" y="44.45"/>
<element name="C6" library="rcl" package="C0805K" value="1nF" x="-36.83" y="44.45"/>
<element name="C7" library="rcl" package="C0805K" value="2n2F" x="-21.59" y="44.45"/>
<element name="C8" library="rcl" package="C0805K" value="100nF" x="-36.83" y="38.1"/>
<element name="C9" library="rcl" package="C0805K" value="100nF" x="-41.91" y="38.1"/>
<element name="CN1" library="pinaculo - conectores" package="BARRA_SMD_8PINOS" value="BARRA_PINOS_SMD_4X2_2.54" x="69.85" y="15.24"/>
<element name="IC1" library="analog-devices" package="SO8" value="INA322" x="20.32" y="25.4" rot="R90">
<attribute name="MF" value="ANALOG DEVICES" x="20.32" y="25.4" size="1.778" layer="27" rot="R90" display="off"/>
<attribute name="MPN" value="AD744JR" x="20.32" y="25.4" size="1.778" layer="27" rot="R90" display="off"/>
<attribute name="OC_FARNELL" value="1651300" x="20.32" y="25.4" size="1.778" layer="27" rot="R90" display="off"/>
<attribute name="OC_NEWARK" value="05F7341" x="20.32" y="25.4" size="1.778" layer="27" rot="R90" display="off"/>
</element>
<element name="IC2" library="linear" package="SO08" value="LM358D" x="20.32" y="12.7" rot="R270"/>
<element name="IC3" library="linear" package="SO08" value="AD8629" x="40.64" y="11.43"/>
<element name="IC4" library="diode" package="SOT23" value="TL431" x="-38.1" y="17.78"/>
<element name="R1" library="rcl" package="M0805" value="2M" x="-45.72" y="31.75"/>
<element name="R10" library="rcl" package="M0805" value="0R" x="-36.83" y="25.4"/>
<element name="R11" library="rcl" package="M0805" value="4k7" x="-41.91" y="25.4"/>
<element name="R12" library="rcl" package="M0805" value="10k" x="-46.99" y="25.4"/>
<element name="R13" library="rcl" package="M0805" value="47k" x="40.64" y="34.29" rot="R90"/>
<element name="R14" library="rcl" package="M0805" value="100k" x="-44.45" y="16.51"/>
<element name="R15" library="rcl" package="M0805" value="100k" x="45.72" y="33.02" rot="R270"/>
<element name="R16" library="rcl" package="M0805" value="100k" x="39.37" y="19.05" rot="R90"/>
<element name="R17" library="rcl" package="M0805" value="100k" x="-26.67" y="25.4"/>
<element name="R18" library="rcl" package="M0805" value="100k" x="-31.75" y="25.4"/>
<element name="R2" library="rcl" package="M0805" value="2M" x="-15.24" y="38.1"/>
<element name="R3" library="rcl" package="M0805" value="1M" x="-20.32" y="38.1"/>
<element name="R4" library="rcl" package="M0805" value="10k" x="-20.32" y="31.75"/>
<element name="R5" library="rcl" package="M0805" value="47k" x="-25.4" y="31.75"/>
<element name="R6" library="rcl" package="M0805" value="3k9" x="-30.48" y="31.75"/>
<element name="R7" library="rcl" package="M0805" value="5k6" x="-35.56" y="31.75"/>
<element name="R8" library="rcl" package="M0805" value="8k2" x="-40.64" y="31.75"/>
<element name="R9" library="rcl" package="M0805" value="0R" x="-25.4" y="38.1"/>
<element name="U$1" library="texas" package="SO-16" value="TS3A5017" x="40.64" y="26.67" rot="R180"/>
<element name="R19" library="rcl" package="M0805" value="10k" x="-48.26" y="-3.81"/>
<element name="R20" library="rcl" package="M0805" value="10k" x="-48.26" y="-10.16"/>
<element name="C11" library="rcl" package="C0805K" value="100nF" x="-49.53" y="-16.51"/>
<element name="R21" library="rcl" package="M0805" value="0R" x="-48.26" y="-22.86"/>
</elements>
<signals>
<signal name="N$2">
<contactref element="IC2" pad="2"/>
<contactref element="R3" pad="2"/>
<contactref element="C3" pad="2"/>
<wire x1="-19.37" y1="38.1" x2="17.72" y2="13.335" width="0" layer="19" extent="1-1"/>
<wire x1="-45.99" y1="38.1" x2="-19.37" y2="38.1" width="0" layer="19" extent="1-1"/>
</signal>
<signal name="REF">
<contactref element="C3" pad="1"/>
<contactref element="IC2" pad="1"/>
<contactref element="IC1" pad="5"/>
<contactref element="R1" pad="2"/>
<contactref element="R2" pad="2"/>
<contactref element="R6" pad="2"/>
<wire x1="17.72" y1="14.605" x2="17.72" y2="27.305" width="0" layer="19" extent="1-1"/>
<wire x1="-14.29" y1="38.1" x2="17.72" y2="27.305" width="0" layer="19" extent="1-1"/>
<wire x1="-29.53" y1="31.75" x2="-14.29" y2="38.1" width="0" layer="19" extent="1-1"/>
<wire x1="-44.77" y1="31.75" x2="-29.53" y2="31.75" width="0" layer="19" extent="1-1"/>
<wire x1="-47.99" y1="38.1" x2="-44.77" y2="31.75" width="0" layer="19" extent="1-1"/>
</signal>
<signal name="IN">
<contactref element="IC1" pad="3"/>
<contactref element="C2" pad="1"/>
<contactref element="R1" pad="1"/>
<contactref element="IC1" pad="2"/>
<contactref element="R2" pad="1"/>
<contactref element="C1" pad="1"/>
<wire x1="22.92" y1="24.765" x2="22.92" y2="26.035" width="0" layer="19" extent="1-1"/>
<wire x1="-16.19" y1="38.1" x2="22.92" y2="26.035" width="0" layer="19" extent="1-1"/>
<wire x1="-26.4" y1="44.45" x2="-16.19" y2="38.1" width="0" layer="19" extent="1-1"/>
<wire x1="-30.21" y1="44.45" x2="-26.4" y2="44.45" width="0" layer="19" extent="1-1"/>
<wire x1="-46.67" y1="31.75" x2="-30.21" y2="44.45" width="0" layer="19" extent="1-1"/>
</signal>
<signal name="GND">
<contactref element="IC1" pad="4"/>
<contactref element="C1" pad="2"/>
<contactref element="C2" pad="2"/>
<contactref element="C5" pad="1"/>
<contactref element="C7" pad="1"/>
<contactref element="C8" pad="2"/>
<contactref element="IC2" pad="4"/>
<contactref element="IC3" pad="4"/>
<contactref element="C9" pad="2"/>
<contactref element="C10" pad="1"/>
<contactref element="IC4" pad="3"/>
<contactref element="R20" pad="2"/>
<contactref element="C11" pad="1"/>
<contactref element="IC2" pad="6"/>
<contactref element="IC2" pad="5"/>
<contactref element="CN1" pad="3"/>
<contactref element="U$1" pad="8"/>
<wire x1="42.545" y1="8.83" x2="66.34" y2="16.51" width="0" layer="19" extent="1-1"/>
<wire x1="22.92" y1="10.795" x2="42.545" y2="8.83" width="0" layer="19" extent="1-1"/>
<wire x1="22.92" y1="12.065" x2="22.92" y2="10.795" width="0" layer="19" extent="1-1"/>
<wire x1="17.72" y1="10.795" x2="22.92" y2="10.795" width="0" layer="19" extent="1-1"/>
<wire x1="22.92" y1="27.305" x2="22.92" y2="12.065" width="0" layer="19" extent="1-1"/>
<wire x1="36.195" y1="29.464" x2="22.92" y2="27.305" width="0" layer="19" extent="1-1"/>
<wire x1="-17.51" y1="44.45" x2="22.92" y2="27.305" width="0" layer="19" extent="1-1"/>
<wire x1="-22.59" y1="44.45" x2="-17.51" y2="44.45" width="0" layer="19" extent="1-1"/>
<wire x1="-24.4" y1="44.45" x2="-22.59" y2="44.45" width="0" layer="19" extent="1-1"/>
<wire x1="-28.21" y1="44.45" x2="-24.4" y2="44.45" width="0" layer="19" extent="1-1"/>
<wire x1="-34.02" y1="44.45" x2="-28.21" y2="44.45" width="0" layer="19" extent="1-1"/>
<wire x1="-35.83" y1="38.1" x2="-34.02" y2="44.45" width="0" layer="19" extent="1-1"/>
<wire x1="-40.91" y1="38.1" x2="-35.83" y2="38.1" width="0" layer="19" extent="1-1"/>
<wire x1="-38.1" y1="18.88" x2="-35.83" y2="38.1" width="0" layer="19" extent="1-1"/>
<wire x1="-47.31" y1="-10.16" x2="-38.1" y2="18.88" width="0" layer="19" extent="1-1"/>
<wire x1="-50.53" y1="-16.51" x2="-47.31" y2="-10.16" width="0" layer="19" extent="1-1"/>
</signal>
<signal name="VCC">
<contactref element="C8" pad="1"/>
<contactref element="IC2" pad="8"/>
<contactref element="IC3" pad="8"/>
<contactref element="C9" pad="1"/>
<contactref element="C10" pad="2"/>
<contactref element="U$1" pad="16"/>
<contactref element="R19" pad="1"/>
<contactref element="R4" pad="1"/>
<contactref element="CN1" pad="1"/>
<wire x1="45.085" y1="24.003" x2="66.34" y2="19.05" width="0" layer="19" extent="1-1"/>
<wire x1="38.735" y1="14.03" x2="45.085" y2="24.003" width="0" layer="19" extent="1-1"/>
<wire x1="22.92" y1="14.605" x2="38.735" y2="14.03" width="0" layer="19" extent="1-1"/>
<wire x1="-21.27" y1="31.75" x2="22.92" y2="14.605" width="0" layer="19" extent="1-1"/>
<wire x1="-15.51" y1="44.45" x2="-21.27" y2="31.75" width="0" layer="19" extent="1-1"/>
<wire x1="-37.83" y1="38.1" x2="-21.27" y2="31.75" width="0" layer="19" extent="1-1"/>
<wire x1="-42.91" y1="38.1" x2="-37.83" y2="38.1" width="0" layer="19" extent="1-1"/>
<wire x1="-49.21" y1="-3.81" x2="-42.91" y2="38.1" width="0" layer="19" extent="1-1"/>
</signal>
<signal name="N$3">
<contactref element="IC3" pad="5"/>
<contactref element="R6" pad="1"/>
<contactref element="C5" pad="2"/>
<wire x1="-31.43" y1="31.75" x2="42.545" y2="14.03" width="0" layer="19" extent="1-1"/>
<wire x1="-32.02" y1="44.45" x2="-31.43" y2="31.75" width="0" layer="19" extent="1-1"/>
</signal>
<signal name="N$5">
<contactref element="IC3" pad="7"/>
<contactref element="R5" pad="2"/>
<contactref element="C4" pad="2"/>
<contactref element="R8" pad="1"/>
<wire x1="-24.45" y1="31.75" x2="40.005" y2="14.03" width="0" layer="19" extent="1-1"/>
<wire x1="-30.75" y1="38.1" x2="-24.45" y2="31.75" width="0" layer="19" extent="1-1"/>
<wire x1="-41.59" y1="31.75" x2="-30.75" y2="38.1" width="0" layer="19" extent="1-1"/>
</signal>
<signal name="N$4">
<contactref element="C6" pad="1"/>
<contactref element="R7" pad="1"/>
<contactref element="R8" pad="2"/>
<wire x1="-36.51" y1="31.75" x2="-37.83" y2="44.45" width="0" layer="19" extent="1-1"/>
<wire x1="-39.69" y1="31.75" x2="-36.51" y2="31.75" width="0" layer="19" extent="1-1"/>
</signal>
<signal name="N$6">
<contactref element="IC3" pad="3"/>
<contactref element="R7" pad="2"/>
<contactref element="C7" pad="2"/>
<wire x1="-20.59" y1="44.45" x2="41.275" y2="8.83" width="0" layer="19" extent="1-1"/>
<wire x1="-34.61" y1="31.75" x2="-20.59" y2="44.45" width="0" layer="19" extent="1-1"/>
</signal>
<signal name="N$7">
<contactref element="R9" pad="2"/>
<contactref element="R5" pad="1"/>
<wire x1="-26.35" y1="31.75" x2="-24.45" y2="38.1" width="0" layer="19" extent="1-1"/>
</signal>
<signal name="N$8">
<contactref element="IC3" pad="6"/>
<contactref element="C4" pad="1"/>
<contactref element="R9" pad="1"/>
<contactref element="R10" pad="2"/>
<wire x1="-26.35" y1="38.1" x2="41.275" y2="14.03" width="0" layer="19" extent="1-1"/>
<wire x1="-32.75" y1="38.1" x2="-26.35" y2="38.1" width="0" layer="19" extent="1-1"/>
<wire x1="-35.88" y1="25.4" x2="-32.75" y2="38.1" width="0" layer="19" extent="1-1"/>
</signal>
<signal name="N$9">
<contactref element="R14" pad="2"/>
<contactref element="R13" pad="2"/>
<contactref element="R12" pad="2"/>
<contactref element="R11" pad="2"/>
<contactref element="R18" pad="2"/>
<contactref element="R17" pad="2"/>
<contactref element="R16" pad="2"/>
<contactref element="R15" pad="2"/>
<contactref element="R10" pad="1"/>
<wire x1="40.64" y1="35.24" x2="45.72" y2="32.07" width="0" layer="19" extent="1-1"/>
<wire x1="39.37" y1="20" x2="45.72" y2="32.07" width="0" layer="19" extent="1-1"/>
<wire x1="-25.72" y1="25.4" x2="39.37" y2="20" width="0" layer="19" extent="1-1"/>
<wire x1="-30.8" y1="25.4" x2="-25.72" y2="25.4" width="0" layer="19" extent="1-1"/>
<wire x1="-37.78" y1="25.4" x2="-30.8" y2="25.4" width="0" layer="19" extent="1-1"/>
<wire x1="-40.96" y1="25.4" x2="-37.78" y2="25.4" width="0" layer="19" extent="1-1"/>
<wire x1="-46.04" y1="25.4" x2="-40.96" y2="25.4" width="0" layer="19" extent="1-1"/>
<wire x1="-43.5" y1="16.51" x2="-40.96" y2="25.4" width="0" layer="19" extent="1-1"/>
</signal>
<signal name="N$16">
<contactref element="U$1" pad="3"/>
<contactref element="R14" pad="1"/>
<wire x1="-45.4" y1="16.51" x2="42.545" y2="29.464" width="0" layer="19" extent="1-1"/>
</signal>
<signal name="N$19">
<contactref element="IC2" pad="3"/>
<contactref element="IC4" pad="2"/>
<contactref element="R4" pad="2"/>
<contactref element="C11" pad="2"/>
<contactref element="R21" pad="1"/>
<wire x1="-48.53" y1="-16.51" x2="-49.21" y2="-22.86" width="0" layer="19" extent="1-1"/>
<wire x1="-37.15" y1="16.68" x2="-48.53" y2="-16.51" width="0" layer="19" extent="1-1"/>
<wire x1="-19.37" y1="31.75" x2="-37.15" y2="16.68" width="0" layer="19" extent="1-1"/>
<wire x1="17.72" y1="12.065" x2="-19.37" y2="31.75" width="0" layer="19" extent="1-1"/>
</signal>
<signal name="N$10">
<contactref element="R18" pad="1"/>
<contactref element="U$1" pad="13"/>
<wire x1="-32.7" y1="25.4" x2="41.275" y2="24.003" width="0" layer="19" extent="1-1"/>
</signal>
<signal name="N$11">
<contactref element="R17" pad="1"/>
<contactref element="U$1" pad="12"/>
<wire x1="-27.62" y1="25.4" x2="40.005" y2="24.003" width="0" layer="19" extent="1-1"/>
</signal>
<signal name="N$12">
<contactref element="R16" pad="1"/>
<contactref element="U$1" pad="11"/>
<wire x1="39.37" y1="18.1" x2="38.735" y2="24.003" width="0" layer="19" extent="1-1"/>
</signal>
<signal name="N$13">
<contactref element="R15" pad="1"/>
<contactref element="U$1" pad="10"/>
<wire x1="37.465" y1="24.003" x2="45.72" y2="33.97" width="0" layer="19" extent="1-1"/>
</signal>
<signal name="N$14">
<contactref element="R13" pad="1"/>
<contactref element="U$1" pad="4"/>
<wire x1="41.275" y1="29.464" x2="40.64" y2="33.34" width="0" layer="19" extent="1-1"/>
</signal>
<signal name="N$15">
<contactref element="R12" pad="1"/>
<contactref element="U$1" pad="5"/>
<wire x1="-47.94" y1="25.4" x2="40.005" y2="29.464" width="0" layer="19" extent="1-1"/>
</signal>
<signal name="N$17">
<contactref element="R11" pad="1"/>
<contactref element="U$1" pad="6"/>
<wire x1="-42.86" y1="25.4" x2="38.735" y2="29.464" width="0" layer="19" extent="1-1"/>
</signal>
<signal name="OUT_INA">
<contactref element="IC1" pad="6"/>
<contactref element="R3" pad="1"/>
<contactref element="IC1" pad="1"/>
<contactref element="U$1" pad="7"/>
<contactref element="U$1" pad="9"/>
<wire x1="36.195" y1="24.003" x2="37.465" y2="29.464" width="0" layer="19" extent="1-1"/>
<wire x1="22.92" y1="23.495" x2="36.195" y2="24.003" width="0" layer="19" extent="1-1"/>
<wire x1="17.72" y1="26.035" x2="22.92" y2="23.495" width="0" layer="19" extent="1-1"/>
<wire x1="-21.27" y1="38.1" x2="17.72" y2="26.035" width="0" layer="19" extent="1-1"/>
</signal>
<signal name="N$18">
<contactref element="R19" pad="2"/>
<contactref element="R20" pad="1"/>
<contactref element="IC4" pad="1"/>
<contactref element="R21" pad="2"/>
<wire x1="-49.21" y1="-10.16" x2="-47.31" y2="-22.86" width="0" layer="19" extent="1-1"/>
<wire x1="-47.31" y1="-3.81" x2="-49.21" y2="-10.16" width="0" layer="19" extent="1-1"/>
<wire x1="-39.05" y1="16.68" x2="-47.31" y2="-3.81" width="0" layer="19" extent="1-1"/>
</signal>
<signal name="OUT">
<contactref element="IC3" pad="2"/>
<contactref element="C6" pad="2"/>
<contactref element="IC3" pad="1"/>
<contactref element="CN1" pad="4"/>
<wire x1="40.005" y1="8.83" x2="73.36" y2="16.51" width="0" layer="19" extent="1-1"/>
<wire x1="38.735" y1="8.83" x2="40.005" y2="8.83" width="0" layer="19" extent="1-1"/>
<wire x1="-35.83" y1="44.45" x2="38.735" y2="8.83" width="0" layer="19" extent="1-1"/>
</signal>
<signal name="N$1">
<polygon width="0.4064" layer="16">
<vertex x="5.08" y="52.07"/>
<vertex x="95.25" y="52.07"/>
<vertex x="95.25" y="5.08"/>
<vertex x="5.08" y="5.08"/>
</polygon>
</signal>
<signal name="N$20">
<polygon width="0.4064" layer="1">
<vertex x="5.08" y="52.07"/>
<vertex x="96.52" y="52.07"/>
<vertex x="96.52" y="5.08"/>
<vertex x="5.08" y="5.08"/>
</polygon>
</signal>
<signal name="VCC_5V">
<contactref element="CN1" pad="2"/>
<contactref element="IC1" pad="7"/>
<contactref element="IC1" pad="8"/>
<wire x1="17.72" y1="23.495" x2="73.36" y2="19.05" width="0" layer="19" extent="1-1"/>
<wire x1="17.72" y1="24.765" x2="17.72" y2="23.495" width="0" layer="19" extent="1-1"/>
</signal>
<signal name="IN1">
<contactref element="U$1" pad="14"/>
<contactref element="CN1" pad="7"/>
<wire x1="42.545" y1="24.003" x2="66.34" y2="11.43" width="0" layer="19" extent="1-1"/>
</signal>
<signal name="IN2">
<contactref element="U$1" pad="2"/>
<contactref element="CN1" pad="8"/>
<wire x1="43.815" y1="29.464" x2="73.36" y2="11.43" width="0" layer="19" extent="1-1"/>
</signal>
<signal name="EN1">
<contactref element="CN1" pad="5"/>
<contactref element="U$1" pad="1"/>
<wire x1="45.085" y1="29.464" x2="66.34" y2="13.97" width="0" layer="19" extent="1-1"/>
</signal>
<signal name="EN2">
<contactref element="CN1" pad="6"/>
<contactref element="U$1" pad="15"/>
<wire x1="43.815" y1="24.003" x2="73.36" y2="13.97" width="0" layer="19" extent="1-1"/>
</signal>
</signals>
</board>
</drawing>
</eagle>
